<svg width="118" height="108" viewBox="0 0 118 108" fill="none" xmlns="http://www.w3.org/2000/svg">
<path opacity="0.34" d="M17.5391 105.75C27.0013 105.75 34.6719 104.25 34.6719 102.399C34.6719 100.548 27.0013 99.0471 17.5391 99.0471C8.07687 99.0471 0.40625 100.548 0.40625 102.399C0.40625 104.25 8.07687 105.75 17.5391 105.75Z" fill="#575FA8"/>
<path d="M19.4141 96.3518L19.0625 102.071H29.2812C29.2812 102.071 25.1094 99.2815 23.2578 98.3909L23.0469 96.3752H19.4141V96.3518Z" fill="#F08789"/>
<path d="M22.5781 50.9768L23.2578 97.8987H19.2266C19.2266 97.8987 14.7734 79.5237 16.9531 74.1565L13.0625 50.9768H22.5781Z" fill="#32388D"/>
<path opacity="0.2" d="M22.5781 50.9768H13.0859L16.9766 74.1565C16.2266 76.0081 16.25 79.4299 16.625 83.1096L23.1641 91.1018L22.5781 50.9768Z" fill="#020203"/>
<path d="M8.63281 97.1018L7.0625 102.821H18.2188C18.2188 102.821 13.5078 100.031 11.6328 99.1409L11.9844 97.1252H8.63281V97.1018Z" fill="#F08789"/>
<path d="M22.8594 50.3909L18.8984 73.9221L12.2188 97.8987H8.21094C8.21094 97.8987 9.5 74.8831 13.625 72.4924L10.3672 50.4143H22.8594V50.3909Z" fill="#32388D"/>
<path opacity="0.2" d="M22.6016 52.0081L22.8594 50.3909H10.3672L10.6484 52.3127L22.625 53.8362L22.6016 52.0081Z" fill="#020203"/>
<path d="M29.3047 34.1487C29.3047 34.1487 31.7891 30.1409 35.6562 29.2268L34.1328 31.0549C34.1328 31.0549 34.8594 32.9534 33.9453 33.9143C33.0312 34.8752 31.5547 34.9456 31.5547 34.9456L30.5234 36.094L29.3047 34.1487Z" fill="#F5ABAE"/>
<path d="M19.4844 30.8674L22.8828 37.8049L29.5391 33.3049L31.2031 35.8596C31.2031 35.8596 25.4141 46.7346 22.8594 45.9378C20.3047 45.1409 18.1016 39.3987 18.1016 39.3987L19.4844 30.8674Z" fill="white"/>
<path opacity="0.2" d="M22.8594 37.8049L19.4609 30.8674L18.1016 39.3987C18.1016 39.3987 20.3047 45.1409 22.8594 45.9377C22.9297 45.9612 22.9766 45.9612 23.0469 45.9612L26.1172 35.5784L22.8594 37.8049Z" fill="#020203"/>
<path d="M22.062 14.4845C22.062 14.4845 22.4604 18.0236 22.8589 18.8908H21.7573C21.7573 18.8908 21.8511 22.2892 21.1479 22.7111C20.6557 23.0158 19.2261 22.7111 18.8979 23.1095C18.5698 23.508 18.0776 26.3439 18.0776 26.3439L13.6479 25.9689L14.0932 22.008C14.0932 22.008 11.6089 19.0314 12.3589 15.3752C13.1089 11.7189 21.4057 11.0861 22.062 14.4845Z" fill="#F5ABAE"/>
<path opacity="0.2" d="M16.5313 20.3909L13.0391 20.2034C13.5547 21.3049 14.1172 21.9846 14.1172 21.9846L13.6719 25.9456L18.1016 26.3206C18.1016 26.3206 18.5938 23.4846 18.9219 23.0862C19.0391 22.9456 19.3203 22.8752 19.6484 22.8752C17.9375 22.4065 16.3906 20.4846 16.5313 20.3909Z" fill="#020203"/>
<path d="M22.2035 15.6564C22.2035 15.6564 21.266 16.2189 19.391 14.9767C19.391 14.9767 18.1254 17.2501 17.0238 16.9455C17.0238 16.9455 16.9769 18.5626 16.7426 18.6798C16.5082 18.797 16.0394 17.297 15.5707 17.2033C15.1019 17.1095 14.6098 17.5783 15.1254 18.9845C15.6176 20.3908 16.5316 20.3908 16.5316 20.3908L14.0941 22.008C14.0941 22.008 12.1723 21.3986 11.7973 19.8048C11.7973 19.8048 9.35976 17.4376 10.8363 15.7501C10.8363 15.7501 9.21913 14.3908 12.9926 12.7267C12.9926 12.7267 13.8832 9.44546 15.641 10.9455C15.641 10.9455 18.8988 8.50795 19.6957 10.6876C19.6957 10.6876 23.891 10.3361 24.1488 12.6095C24.4066 14.883 23.3988 15.422 23.3988 15.422C23.3988 15.422 23.6332 17.297 22.4613 17.3908L22.2035 15.6564Z" fill="#212226"/>
<path d="M10.5784 30.5625C10.5784 30.5625 8.37524 30.0235 8.75024 27.6797C9.12524 25.3125 12.219 24.2578 18.5705 25.7344C19.3205 25.8985 19.9065 27.1407 19.4143 28.2188C19.4143 28.2188 21.4534 33.2344 22.0862 37.336C22.719 41.4375 23.0471 45.7266 23.7502 47.7188C24.4299 49.711 23.8674 51.9375 21.969 51.9375C20.094 51.9375 12.6877 51.9375 10.3909 51.9375C8.09399 51.9375 7.81274 48.75 8.7268 45.4219C9.61742 42.1172 10.9534 32.9532 10.5784 30.5625Z" fill="#444496"/>
<path d="M15.735 29.2735C19.3444 30.047 16.8366 37.2189 16.11 39.2579C15.3834 41.3204 14.5866 43.1486 15.735 44.7423C16.8834 46.3361 18.8991 48.1173 18.8991 48.1173L17.5397 50.9767C17.5397 50.9767 10.0162 50.0157 8.21156 47.7892C6.43031 45.5626 7.43812 40.5939 8.985 37.172C10.5319 33.7501 13.0397 28.711 15.735 29.2735Z" fill="white"/>
<path d="M17.3278 51.4689C17.234 51.422 17.2106 51.3283 17.234 51.2345L19.0622 47.2502C19.109 47.1564 19.2028 47.133 19.2965 47.1564C19.3903 47.2033 19.4137 47.297 19.3903 47.3908L17.5622 51.3751C17.5153 51.4689 17.4215 51.4923 17.3278 51.4689Z" fill="#A77071"/>
<path d="M15.6172 65.0391C15.6172 65.625 15.1484 66.1172 14.5391 66.1172C13.9531 66.1172 13.4609 65.625 13.4609 65.0391C13.4609 64.4531 13.9297 63.9609 14.5391 63.9609C15.1484 63.9844 15.6172 64.4531 15.6172 65.0391Z" fill="#59BCAB"/>
<path d="M8.91406 64.7578C7.41406 64.7578 6.19531 63.5391 6.19531 62.0391C6.19531 60.5391 7.41406 59.3203 8.91406 59.3203C10.4141 59.3203 11.6328 60.5391 11.6328 62.0391C11.6328 63.5391 10.4141 64.7578 8.91406 64.7578ZM8.91406 60.75C8.1875 60.75 7.625 61.3359 7.625 62.0391C7.625 62.7422 8.21094 63.3281 8.91406 63.3281C9.64062 63.3281 10.2031 62.7422 10.2031 62.0391C10.2031 61.3359 9.64062 60.75 8.91406 60.75Z" fill="#FCC450"/>
<path d="M87.0781 11.5781H86.1875V12.4922C86.1875 12.9141 85.8594 13.2422 85.4375 13.2422C85.0156 13.2422 84.6875 12.9141 84.6875 12.4922V11.5781H83.7734C83.3516 11.5781 83.0234 11.25 83.0234 10.8281C83.0234 10.4063 83.3516 10.0781 83.7734 10.0781H84.6875V9.16406C84.6875 8.74219 85.0156 8.41406 85.4375 8.41406C85.8594 8.41406 86.1875 8.74219 86.1875 9.16406V10.0781H87.1016C87.5234 10.0781 87.8516 10.4063 87.8516 10.8281C87.8281 11.25 87.5 11.5781 87.0781 11.5781Z" fill="#59BCAB"/>
<path d="M94.4375 6.84375C94.4375 7.42969 93.9687 7.92188 93.3594 7.92188C92.7734 7.92188 92.2812 7.45312 92.2812 6.84375C92.2812 6.25781 92.7734 5.76562 93.3594 5.76562C93.9453 5.76563 94.4375 6.23437 94.4375 6.84375Z" fill="#345185"/>
<path d="M38.9611 30.9609C35.7267 22.8516 37.3908 13.2656 43.9533 6.70313C47.1173 3.53906 50.9845 1.5 55.0626 0.632812L57.4767 11.5781C52.3908 12.6797 48.5939 17.2031 48.5939 22.6172C48.5939 24.0938 48.8751 25.5 49.3908 26.8125L38.9611 30.9609Z" fill="#345185"/>
<path d="M43.9531 38.5312C43.7891 38.3672 43.6016 38.1797 43.4375 37.9922L51.6172 30.3281C53.6797 32.5312 56.6094 33.8906 59.8672 33.8906C66.1016 33.8906 71.1641 28.8281 71.1641 22.5937C71.1641 18.1406 68.6094 14.2969 64.8594 12.4688L69.8281 2.41406C71.9844 3.46875 74 4.89844 75.7813 6.67969C84.5703 15.4687 84.5703 29.7422 75.7813 38.5312C67.0156 47.3203 52.7422 47.3203 43.9531 38.5312Z" fill="white"/>
<path d="M59.8906 11.3204C59.0469 11.3204 58.25 11.4141 57.4766 11.5782L55.0859 0.632891C60.0078 -0.445234 65.2344 0.140703 69.8515 2.43758L64.8828 12.4923C63.3828 11.7188 61.6719 11.3204 59.8906 11.3204Z" fill="#59BCAB"/>
<path d="M43.4375 37.9922C41.4688 35.8828 39.9687 33.4922 38.9609 30.9609L49.3906 26.8125C49.9062 28.125 50.6797 29.3203 51.6406 30.3516L43.4375 37.9922Z" fill="#C1E4EE"/>
<path d="M111.195 17.6016V93.0234C111.195 94.2891 110.164 95.3203 108.898 95.3203H60.6641C59.3984 95.3203 58.3672 94.2891 58.3672 93.0234V17.6016C58.3672 16.3359 59.3984 15.2812 60.6641 15.2812H108.875C110.164 15.2812 111.195 16.3125 111.195 17.6016Z" fill="#4FBECB"/>
<path d="M53.0469 97.4766H116.516C117.102 97.4766 117.594 97.0078 117.594 96.3984C117.594 95.8125 117.125 95.3203 116.516 95.3203H53.0469C52.4609 95.3203 51.9688 95.7891 51.9688 96.3984C51.9688 97.0078 52.4609 97.4766 53.0469 97.4766Z" fill="#E2E2E1"/>
<path d="M111.195 17.5781V23.2031H58.3672V17.5781C58.3672 16.3125 59.3984 15.2578 60.6641 15.2578H108.875C110.164 15.2812 111.195 16.3125 111.195 17.5781Z" fill="#4FBECB"/>
<path d="M84.7813 93.3281C83.5859 93.3281 82.625 92.3672 82.625 91.1719C82.625 89.9766 83.5859 89.0156 84.7813 89.0156C85.9766 89.0156 86.9375 89.9766 86.9375 91.1719C86.9609 92.3672 85.9766 93.3281 84.7813 93.3281Z" fill="#E6F2EA"/>
<path d="M64.4609 20.0625C63.9687 20.0625 63.5703 19.6641 63.5703 19.1719C63.5703 18.6797 63.9687 18.2812 64.4609 18.2812C64.9531 18.2812 65.3516 18.6797 65.3516 19.1719C65.3281 19.6641 64.9297 20.0625 64.4609 20.0625Z" fill="#E6F2EA"/>
<path d="M67.25 20.0625C66.7578 20.0625 66.3594 19.6641 66.3594 19.1719C66.3594 18.6797 66.7578 18.2812 67.25 18.2812C67.7422 18.2812 68.1406 18.6797 68.1406 19.1719C68.1406 19.6641 67.7422 20.0625 67.25 20.0625Z" fill="#E6F2EA"/>
<path d="M110.375 23.2031H59.1875V86.6953H110.375V23.2031Z" fill="#D2EBF7"/>
<path d="M68.3496 44.4844V36.9609H51.4043V44.4844H68.3496Z" fill="#A9DAE5"/>
<path d="M78.6904 63.6292V56.1057H61.7451V63.6292H78.6904Z" fill="#A9DAE5"/>
<path d="M73.5322 54.0686V46.5452H56.5869V54.0686H73.5322Z" fill="#A9DAE5"/>
<path d="M107.445 25.875H61.7422V34.4297H107.445V25.875Z" fill="#EDF6F4"/>
<path d="M106.062 27.0938H99.9922V33.1641H106.062V27.0938Z" fill="#D2E8F2"/>
<path d="M77.8438 27.4688H64.6953V28.6406H77.8438V27.4688Z" fill="#ACD8C8"/>
<path d="M77.8438 29.5547H64.6953V30.7266H77.8438V29.5547Z" fill="#ACD8C8"/>
<path d="M73.5547 31.6406H64.6953V32.8125H73.5547V31.6406Z" fill="#ACD8C8"/>
<path opacity="0.5" d="M116.07 62.4141H78.6875V79.9688H116.07V62.4141Z" fill="#96CEB8"/>
<path d="M97.0859 68.4844H82.4141V69.9609H97.0859V68.4844Z" fill="#E6F2EA"/>
<path d="M93.5938 71.1094H82.4141V72.5859H93.5938V71.1094Z" fill="#E6F2EA"/>
<path d="M89.9609 73.7578H82.4141V75.2344H89.9609V73.7578Z" fill="#E6F2EA"/>
<path d="M95.3984 73.7578H90.8984V75.2344H95.3984V73.7578Z" fill="#E6F2EA"/>
<path d="M92.6094 76.3828H82.4141V77.8594H92.6094V76.3828Z" fill="#E6F2EA"/>
<path d="M75.2422 66.4453H61.7422V79.9453H75.2422V66.4453Z" fill="#9FD2BA"/>
<path d="M71.4776 76.2233C73.1251 74.5758 73.1251 71.9047 71.4776 70.2572C69.83 68.6096 67.1589 68.6096 65.5114 70.2572C63.8639 71.9047 63.8639 74.5758 65.5114 76.2233C67.1589 77.8708 69.83 77.8708 71.4776 76.2233Z" fill="#7CC39E"/>
<path d="M71.7031 73.2422C71.7031 74.2969 71.1875 75.2344 70.3906 75.8203C70.1562 75.9844 69.8984 76.1484 69.6172 76.2422C69.5 76.2891 69.3594 76.3359 69.2422 76.3594C69.1719 76.3828 69.0781 76.3828 69.0078 76.4063C68.8438 76.4297 68.6797 76.4531 68.5156 76.4531C68.1875 76.4531 67.8594 76.4063 67.5547 76.3125C66.2422 75.9141 65.3047 74.6953 65.3047 73.2422C65.3047 72.75 65.4219 72.2578 65.6328 71.8359C65.8906 71.3203 66.2656 70.875 66.7344 70.5703C66.8516 70.5 66.9688 70.4297 67.0859 70.3594C67.3438 70.2187 67.625 70.125 67.9297 70.0781C68.1172 70.0313 68.3281 70.0312 68.5156 70.0312C69.875 70.0312 71.0469 70.875 71.4922 72.0703C71.6094 72.4453 71.7031 72.8203 71.7031 73.2422Z" fill="#EFF4F4"/>
<path d="M68.4922 73.6172C68.2813 73.6172 68.1172 73.4531 68.1172 73.2422V71.1797C68.1172 70.9687 68.2813 70.8047 68.4922 70.8047C68.7031 70.8047 68.8672 70.9687 68.8672 71.1797V73.2422C68.8672 73.4531 68.7031 73.6172 68.4922 73.6172Z" fill="#C1D6CF"/>
<path d="M68.4918 73.6173C68.3746 73.6173 68.2574 73.547 68.1871 73.4532C68.0699 73.2892 68.1402 73.0548 68.3043 72.9376L69.359 72.2579C69.523 72.1407 69.7574 72.211 69.8746 72.3751C69.9918 72.5391 69.9215 72.7735 69.7574 72.8907L68.7027 73.5704C68.6324 73.5938 68.5621 73.6173 68.4918 73.6173Z" fill="#C1D6CF"/>
<path d="M107.445 36.9609H80.7734V63.6328H107.445V36.9609Z" fill="#98D5E9"/>
<path d="M94.1094 51.4922C92.2344 51.4922 90.7109 49.9687 90.7109 48.0937V46.0547C90.7109 44.1797 92.2344 42.6562 94.1094 42.6562C95.9844 42.6562 97.5078 44.1797 97.5078 46.0547V48.0937C97.5078 49.9687 95.9844 51.4922 94.1094 51.4922Z" fill="#F8FCFA"/>
<path d="M94.1093 49.7578C90.8984 49.7578 88.1562 51.6328 86.8671 54.3516C86.1171 55.9453 87.2655 57.7734 89.0234 57.7734H99.2187C100.976 57.7734 102.125 55.9453 101.375 54.3516C100.086 51.6328 97.3202 49.7578 94.1093 49.7578Z" fill="#F8FCFA"/>
<path d="M107.44 83.0283V80.8486L61.7373 80.8486V83.0283L107.44 83.0283Z" fill="#FFE1AB"/>
<path d="M110.867 36.0938V28.1484C111.43 28.1484 111.898 28.6172 111.898 29.1797V35.0859C111.898 35.6484 111.43 36.0938 110.867 36.0938Z" fill="#4FBECB"/>
<path d="M110.867 44.9766V37.0312C111.43 37.0312 111.898 37.5 111.898 38.0625V43.9687C111.898 44.5078 111.43 44.9766 110.867 44.9766Z" fill="#4FBECB"/>
<path opacity="0.3" d="M88.8828 23.2031L59.1875 52.8984V36.9375L72.9219 23.2031H88.8828Z" fill="#F6FBFD"/>
<path opacity="0.3" d="M99.9922 23.2031L59.1875 64.0078V56.0391L92.0234 23.2031H99.9922Z" fill="#F6FBFD"/>
<path opacity="0.3" d="M69.7812 68.9062V75.75C69.7812 76.0312 69.5937 76.2891 69.3359 76.3594V95.2969H60.6875C59.4219 95.2969 58.3906 94.2656 58.3906 93V54.9609H67.7422C68.6328 54.9609 69.3359 55.6875 69.3359 56.5547V68.2969C69.5937 68.3906 69.7812 68.625 69.7812 68.9062Z" fill="#385F82"/>
<path d="M63.1953 51.7969V104.156C63.1953 105.047 62.4688 105.75 61.6016 105.75H34.1094C33.2422 105.75 32.5156 105.047 32.5156 104.156V51.7969C32.5156 50.9063 33.2422 50.2031 34.1094 50.2031H61.5781C62.4687 50.2031 63.1953 50.9063 63.1953 51.7969Z" fill="#5BB98E"/>
<path d="M63.1953 51.7969V55.7109H32.5156V51.7969C32.5156 50.9062 33.2422 50.2031 34.1094 50.2031H61.6016C62.4688 50.2031 63.1953 50.9297 63.1953 51.7969Z" fill="#5BB98E"/>
<path d="M47.8437 104.391C47.0234 104.391 46.3438 103.711 46.3438 102.891C46.3438 102.07 47.0234 101.391 47.8437 101.391C48.6641 101.391 49.3438 102.07 49.3438 102.891C49.3438 103.711 48.6875 104.391 47.8437 104.391Z" fill="#E6F2EA"/>
<path d="M42.2891 53.5078C41.9609 53.5078 41.6797 53.2266 41.6797 52.8984C41.6797 52.5703 41.9609 52.2891 42.2891 52.2891C42.6172 52.2891 42.8984 52.5703 42.8984 52.8984C42.8984 53.25 42.6406 53.5078 42.2891 53.5078Z" fill="#E6F2EA"/>
<path d="M50.9375 53.1328H44.8672C44.75 53.1328 44.6328 53.0391 44.6328 52.8984C44.6328 52.7578 44.7266 52.6641 44.8672 52.6641H50.9375C51.0547 52.6641 51.1719 52.7578 51.1719 52.8984C51.1719 53.0391 51.0547 53.1328 50.9375 53.1328Z" fill="#E6F2EA"/>
<path d="M62.6094 55.7109H33.0781V99.7969H62.6094V55.7109Z" fill="#D2EBF7"/>
<path d="M40.8125 79.1484H35.4453V80.8359H40.8125V79.1484Z" fill="#EDF6F4"/>
<path d="M54.4766 79.1484H49.1094V80.8359H54.4766V79.1484Z" fill="#EDF6F4"/>
<path d="M47.6328 79.1484H42.2656V80.8359H47.6328V79.1484Z" fill="#EDF6F4"/>
<path d="M60.2891 82.2188H38.6797V88.1484H60.2891V82.2188Z" fill="#EDF6F4"/>
<path d="M59.3281 83.0625H55.1094V87.2812H59.3281V83.0625Z" fill="#D5EAE4"/>
<path d="M46.6953 83.3203H37.5547V84.1406H46.6953V83.3203Z" fill="#ACD8C8"/>
<path d="M46.6953 84.7734H37.5547V85.5938H46.6953V84.7734Z" fill="#ACD8C8"/>
<path d="M43.6953 86.2266H37.5547V87.0469H43.6953V86.2266Z" fill="#ACD8C8"/>
<path d="M51.2891 89.625H35.4922V97.0312H51.2891V89.625Z" fill="#EDF6F4"/>
<path d="M45.6172 90.75H37.5547V91.5703H45.6172V90.75Z" fill="#FFE1AB"/>
<path d="M43.6953 92.1797H37.5547V93H43.6953V92.1797Z" fill="#FFE1AB"/>
<path d="M41.7031 93.6328H37.5547V94.4531H41.7031V93.6328Z" fill="#FFE1AB"/>
<path d="M44.6797 93.6328H42.2188V94.4531H44.6797V93.6328Z" fill="#ACD8C8"/>
<path d="M43.1562 95.0859H37.5547V95.9062H43.1562V95.0859Z" fill="#FFE1AB"/>
<path opacity="0.5" d="M54.5 58.4531H31.25V77.4141H54.5V58.4531Z" fill="#FFE1AB"/>
<path d="M45.0078 73.9453C48.2956 73.9453 50.9609 71.28 50.9609 67.9922C50.9609 64.7044 48.2956 62.0391 45.0078 62.0391C41.72 62.0391 39.0547 64.7044 39.0547 67.9922C39.0547 71.28 41.72 73.9453 45.0078 73.9453Z" fill="#FCC450"/>
<path d="M49.5078 67.9922C49.5078 69.4922 48.7812 70.8047 47.6797 71.625C47.3516 71.8594 46.9766 72.0703 46.5781 72.2109C46.4141 72.2813 46.2266 72.3281 46.0391 72.375C45.9219 72.3984 45.8047 72.4219 45.7109 72.4453C45.4766 72.4922 45.2422 72.4922 45.0078 72.4922C44.5391 72.4922 44.0938 72.4219 43.6719 72.2813C41.8438 71.7188 40.5078 69.9844 40.5078 67.9688C40.5078 67.2656 40.6719 66.6094 40.9531 66C41.3047 65.2734 41.8437 64.6406 42.5234 64.1953C42.6875 64.0781 42.8516 63.9844 43.0156 63.9141C43.3906 63.7266 43.7891 63.5859 44.1875 63.5156C44.4688 63.4688 44.7266 63.4453 45.0078 63.4453C46.9297 63.4453 48.5703 64.6406 49.2031 66.3281C49.4141 66.8672 49.5078 67.4297 49.5078 67.9922Z" fill="#EFF4F4"/>
<path d="M45.0078 68.5313C44.7266 68.5313 44.4922 68.2969 44.4922 68.0156V65.1328C44.4922 64.8516 44.7266 64.6172 45.0078 64.6172C45.2891 64.6172 45.5234 64.8516 45.5234 65.1328V68.0156C45.5234 68.2969 45.2891 68.5313 45.0078 68.5313Z" fill="#C1D6CF"/>
<path d="M45.0074 68.5313C44.8433 68.5313 44.6558 68.4376 44.562 68.2969C44.398 68.0626 44.4917 67.7344 44.7261 67.5704L46.2261 66.6329C46.4605 66.4688 46.7886 66.5625 46.9527 66.7969C47.1167 67.0313 47.023 67.3594 46.7886 67.5235L45.2886 68.461C45.1949 68.5079 45.1011 68.5313 45.0074 68.5313Z" fill="#C1D6CF"/>
<path opacity="0.3" d="M53.7031 55.7109L33.0781 76.3125V65.25L42.6172 55.7109H53.7031Z" fill="#F6FBFD"/>
<path opacity="0.3" d="M61.4141 55.7109L33.0781 84.0469V78.4922L55.8594 55.7109H61.4141Z" fill="#F6FBFD"/>
<g opacity="0.7">
<path opacity="0.7" d="M64.3203 89.625H52.8828V101.062H64.3203V89.625Z" fill="#9FD2BA"/>
<path opacity="0.7" d="M58.5781 95.8594C57.7812 95.8594 57.125 95.2031 57.125 94.4062V93.5391C57.125 92.7422 57.7812 92.0859 58.5781 92.0859C59.375 92.0859 60.0313 92.7422 60.0313 93.5391V94.4062C60.0547 95.2031 59.3984 95.8594 58.5781 95.8594Z" fill="#F8FCFA"/>
<path opacity="0.7" d="M58.5781 95.1094C57.1953 95.1094 56.0234 95.9062 55.4609 97.0781C55.1328 97.7578 55.625 98.5547 56.375 98.5547H60.7343C61.4843 98.5547 61.9765 97.7578 61.6484 97.0781C61.1562 95.9062 59.9609 95.1094 58.5781 95.1094Z" fill="#F8FCFA"/>
</g>
<path d="M59.9844 58.4531H56.5859V80.8359H59.9844V58.4531Z" fill="#9FD2BA"/>
<path d="M62.9609 71.6719V63.4922C63.3359 63.4922 63.6406 63.7969 63.6406 64.1719V71.0156C63.6406 71.3672 63.3359 71.6719 62.9609 71.6719Z" fill="#5BB98E"/>
<path opacity="0.3" d="M42.4297 50.2031L39.6172 58.4531L33.1484 77.4141L32.5156 79.2891V77.4141H31.2734V58.4531H32.5156V51.7969C32.5156 50.9063 33.2422 50.2031 34.1094 50.2031H42.4297Z" fill="#385F82"/>
<path d="M17.2109 107.906H67.5078C68.0938 107.906 68.5859 107.437 68.5859 106.828C68.5859 106.242 68.1172 105.75 67.5078 105.75H17.2109C16.625 105.75 16.1328 106.219 16.1328 106.828C16.1563 107.437 16.625 107.906 17.2109 107.906Z" fill="#E2E2E1"/>
</svg>
