<svg width="300" height="224" viewBox="0 0 300 224" fill="none" xmlns="http://www.w3.org/2000/svg">
<path d="M300 196.848H0V196.998H300V196.848Z" fill="#EBEBEB"/>
<path d="M269.94 206.522H250.068V206.672H269.94V206.522Z" fill="#EBEBEB"/>
<path d="M198.732 208.157H193.518V208.307H198.732V208.157Z" fill="#EBEBEB"/>
<path d="M249.469 200.943H237.955V201.093H249.469V200.943Z" fill="#EBEBEB"/>
<path d="M57.3906 201.953H31.4766V202.103H57.3906V201.953Z" fill="#EBEBEB"/>
<path d="M66.5343 201.953H62.7363V202.103H66.5343V201.953Z" fill="#EBEBEB"/>
<path d="M135.09 204.49H78.8818V204.64H135.09V204.49Z" fill="#EBEBEB"/>
<path d="M142.2 170.032H26.3458C25.4382 170.031 24.5683 169.668 23.9271 169.025C23.2859 168.381 22.9258 167.509 22.9258 166.599V3.40305C22.9337 2.49879 23.2973 1.63417 23.9376 0.996998C24.578 0.359821 25.4434 0.00154904 26.3458 0H142.2C143.108 0 143.98 0.361702 144.622 1.00554C145.265 1.64937 145.626 2.5226 145.626 3.43312V166.599C145.626 167.51 145.265 168.383 144.622 169.027C143.98 169.671 143.108 170.032 142.2 170.032ZM26.3458 0.12025C25.478 0.121842 24.6462 0.46841 24.0332 1.08388C23.4201 1.69936 23.0758 2.53344 23.0758 3.40305V166.599C23.0758 167.469 23.4201 168.303 24.0332 168.919C24.6462 169.534 25.478 169.881 26.3458 169.882H142.2C143.068 169.881 143.9 169.534 144.515 168.919C145.129 168.304 145.474 167.47 145.476 166.599V3.40305C145.474 2.53289 145.129 1.69882 144.515 1.08352C143.9 0.468215 143.068 0.121839 142.2 0.12025H26.3458Z" fill="#EBEBEB"/>
<path d="M271.985 170.032H156.125C155.217 170.031 154.347 169.669 153.704 169.025C153.062 168.382 152.701 167.509 152.699 166.599V3.40305C152.709 2.49825 153.074 1.63363 153.715 0.996622C154.356 0.359611 155.222 0.00153215 156.125 0H271.985C272.887 0.00312918 273.75 0.3621 274.389 0.999108C275.029 1.63612 275.391 2.49983 275.399 3.40305V166.599C275.399 167.508 275.04 168.379 274.4 169.023C273.76 169.666 272.892 170.029 271.985 170.032ZM156.125 0.12025C155.257 0.121839 154.425 0.468215 153.81 1.08352C153.196 1.69882 152.851 2.53289 152.849 3.40305V166.599C152.851 167.47 153.196 168.304 153.81 168.919C154.425 169.534 155.257 169.881 156.125 169.882H271.985C272.854 169.881 273.686 169.534 274.3 168.919C274.914 168.304 275.26 167.47 275.261 166.599V3.40305C275.26 2.53289 274.914 1.69882 274.3 1.08352C273.686 0.468215 272.854 0.121839 271.985 0.12025H156.125Z" fill="#EBEBEB"/>
<path d="M93.9119 142.808L85.6019 149.77L97.4399 167.014L106.896 161.723C111.965 166.601 117.907 170.477 124.41 173.147L123.45 183.927L144 187.721L146.946 177.307C153.961 177.147 160.883 175.658 167.346 172.918L174.294 181.246L191.502 169.383L186.234 159.931C191.103 154.855 194.971 148.903 197.634 142.387L208.386 143.349L212.184 122.768L201.792 119.81C201.628 112.781 200.142 105.845 197.412 99.3678L205.722 92.4054L193.884 75.1677L184.422 80.4526C179.355 75.5749 173.415 71.6992 166.914 69.029L167.874 58.2486L147.336 54.4487L144.39 64.8563C137.375 65.0234 130.455 66.5124 123.99 69.2454L117 60.8821L99.8039 72.7507L105.078 82.2263C100.21 87.3059 96.3426 93.2602 93.6779 99.7767L82.9199 98.8147L79.1279 119.395L89.5139 122.347C89.6806 129.384 91.1728 136.326 93.9119 142.808ZM117.858 115.914C118.874 110.404 121.498 105.32 125.398 101.305C129.298 97.289 134.299 94.5225 139.768 93.355C145.237 92.1874 150.928 92.6711 156.123 94.745C161.317 96.8189 165.782 100.39 168.951 105.006C172.12 109.622 173.853 115.077 173.928 120.68C174.004 126.282 172.42 131.782 169.377 136.483C166.334 141.183 161.968 144.874 156.831 147.089C151.695 149.303 146.018 149.941 140.52 148.923C133.147 147.557 126.617 143.312 122.367 137.122C118.117 130.931 116.495 123.303 117.858 115.914Z" fill="#F0F0F0"/>
<path d="M232.428 132.172L238.92 133.375L239.85 130.086C242.07 130.033 244.26 129.561 246.306 128.697L248.502 131.331L253.944 127.579L252.276 124.573C253.815 122.97 255.036 121.089 255.876 119.029L259.278 119.33L260.478 112.83L257.19 111.892C257.141 109.667 256.671 107.472 255.804 105.423L258.432 103.222L254.688 97.7752L251.688 99.4467C250.085 97.908 248.209 96.6844 246.156 95.8392L246.456 92.4361L239.964 91.2336L239.034 94.5225C236.814 94.5767 234.624 95.0478 232.578 95.9113L230.4 93.2779L224.958 97.0297L226.626 100.036C225.087 101.639 223.865 103.52 223.026 105.579L219.624 105.279L218.424 111.778L221.706 112.716C221.758 114.941 222.228 117.136 223.092 119.186L220.464 121.386L224.208 126.833L227.208 125.162C228.81 126.704 230.689 127.928 232.746 128.769L232.428 132.172ZM230.658 110.678C230.978 108.935 231.807 107.327 233.04 106.056C234.273 104.785 235.854 103.91 237.584 103.54C239.313 103.17 241.113 103.322 242.757 103.978C244.4 104.633 245.812 105.762 246.814 107.222C247.817 108.682 248.365 110.407 248.389 112.179C248.413 113.951 247.912 115.691 246.949 117.177C245.987 118.664 244.606 119.831 242.981 120.531C241.356 121.231 239.561 121.432 237.822 121.11C235.493 120.676 233.43 119.334 232.087 117.378C230.744 115.423 230.23 113.013 230.658 110.678Z" fill="#F0F0F0"/>
<path d="M50.2203 150.697L55.1643 151.616L55.8783 149.109C57.5678 149.066 59.2343 148.707 60.7923 148.051L62.4663 150.053L66.6123 147.197L65.3403 144.901C66.5104 143.683 67.4407 142.255 68.0823 140.692L70.6743 140.92L71.5863 135.966L69.0843 135.281C69.0471 133.585 68.6887 131.912 68.0283 130.35L70.0323 128.673L67.1763 124.524L64.9023 125.799C63.686 124.626 62.2615 123.692 60.7023 123.045L60.9363 120.454L55.9863 119.534L55.2783 122.041C53.5869 122.084 51.9184 122.443 50.3583 123.099L48.6903 121.097L44.5443 123.953L45.8163 126.238C44.6456 127.455 43.7153 128.883 43.0743 130.447L40.4823 130.218L39.5703 135.172L42.0543 135.882C42.0915 137.577 42.4499 139.25 43.1103 140.812L41.1063 142.496L43.9563 146.644L46.2363 145.376C47.4534 146.545 48.8778 147.477 50.4363 148.123L50.2203 150.697ZM48.8763 134.325C49.1218 132.999 49.7539 131.776 50.6928 130.81C51.6318 129.845 52.8354 129.18 54.1514 128.899C55.4675 128.619 56.837 128.736 58.0867 129.235C59.3364 129.735 60.4104 130.594 61.1727 131.705C61.935 132.816 62.3515 134.129 62.3695 135.477C62.3876 136.825 62.0063 138.148 61.274 139.279C60.5417 140.41 59.4911 141.299 58.2552 141.831C57.0193 142.364 55.6534 142.518 54.3303 142.273C52.5556 141.943 50.9843 140.92 49.9617 139.43C48.939 137.94 48.5486 136.103 48.8763 134.325Z" fill="#F0F0F0"/>
<path d="M138.509 40.2838L142.253 40.9753L142.799 39.0813C144.081 39.0556 145.346 38.7842 146.525 38.2817L147.791 39.8028L150.923 37.6383L149.963 35.9128C150.849 34.9866 151.554 33.9015 152.039 32.7141L153.995 32.8885L154.685 29.1427L152.795 28.6016C152.764 27.32 152.493 26.0557 151.997 24.8739L153.509 23.6053L151.355 20.4667L149.633 21.4287C148.709 20.5407 147.626 19.8349 146.441 19.3484L146.615 17.3884L142.871 16.6909L142.337 18.5909C141.057 18.616 139.795 18.8875 138.617 19.3905L137.351 17.8694L134.213 20.0338L135.179 21.7594C134.291 22.6842 133.587 23.7697 133.103 24.9581L131.141 24.7837L130.451 28.5295L132.341 29.0706C132.372 30.3523 132.642 31.6169 133.139 32.7983L131.627 34.0669L133.787 37.2054L135.509 36.2434C136.43 37.1324 137.512 37.8382 138.695 38.3238L138.509 40.2838ZM137.495 27.8921C137.681 26.8891 138.159 25.9636 138.869 25.2327C139.579 24.5018 140.489 23.9983 141.485 23.7859C142.481 23.5735 143.517 23.6617 144.463 24.0393C145.409 24.4169 146.221 25.0671 146.798 25.9075C147.375 26.748 147.691 27.741 147.705 28.761C147.719 29.7811 147.43 30.7823 146.876 31.6383C146.323 32.4942 145.528 33.1664 144.593 33.5697C143.658 33.9731 142.624 34.0897 141.623 33.9046C140.282 33.6562 139.095 32.8848 138.321 31.7599C137.547 30.6349 137.25 29.2482 137.495 27.9042V27.8921Z" fill="#F0F0F0"/>
<path d="M200.695 70.4606L203.191 70.9175L203.545 69.6549C204.399 69.6346 205.241 69.453 206.029 69.1198L206.875 70.1359L208.963 68.6929L208.321 67.5385C208.912 66.9228 209.382 66.2007 209.707 65.4101L211.015 65.5244L211.477 63.0232L210.211 62.6624C210.192 61.8088 210.013 60.9664 209.683 60.1793L210.691 59.3315L209.251 57.2392L208.105 57.8825C207.487 57.2909 206.765 56.8199 205.975 56.4937L206.089 55.1829L203.593 54.72L203.239 55.9886C202.385 56.0069 201.542 56.1864 200.755 56.5177L199.909 55.5076L197.821 56.9506L198.463 58.099C197.872 58.7179 197.402 59.4417 197.077 60.2334L195.769 60.1192L195.312 62.6143L196.573 62.9751C196.59 63.8314 196.771 64.6764 197.107 65.4642L196.093 66.306L197.533 68.4043L198.685 67.761C199.299 68.3538 200.02 68.8251 200.809 69.1499L200.695 70.4606ZM200.016 62.1935C200.14 61.5231 200.458 60.9043 200.932 60.4155C201.406 59.9267 202.014 59.5897 202.68 59.4473C203.345 59.305 204.037 59.3635 204.669 59.6156C205.301 59.8676 205.844 60.3019 206.23 60.8634C206.616 61.425 206.826 62.0885 206.836 62.77C206.845 63.4516 206.652 64.1206 206.282 64.6923C205.911 65.264 205.38 65.7128 204.755 65.9819C204.13 66.2509 203.439 66.3282 202.771 66.2038C201.875 66.0372 201.082 65.5214 200.566 64.7695C200.049 64.0176 199.852 63.0911 200.016 62.1935Z" fill="#F0F0F0"/>
<path d="M85.649 40.3262L88.145 40.7891L88.499 39.5265C89.3529 39.5032 90.195 39.3218 90.983 38.9914L91.829 40.0015L93.917 38.5585L93.275 37.4101C93.8667 36.7922 94.3369 36.0681 94.661 35.2757L95.969 35.396L96.431 32.8948L95.165 32.534C95.1462 31.6785 94.9671 30.8341 94.637 30.0449L95.645 29.2031L94.205 27.1048L93.053 27.7481C92.4399 27.1551 91.7188 26.6857 90.929 26.3652L91.043 25.0545L88.547 24.5916L88.199 25.8542C87.3448 25.8745 86.5021 26.0561 85.715 26.3893L84.869 25.3792L82.799 26.8162L83.441 27.9706C82.8493 28.5885 82.3791 29.3126 82.055 30.105L80.747 29.9847L80.291 32.4859L81.551 32.8467C81.5684 33.701 81.7497 34.5441 82.085 35.3298L81.071 36.1776L82.511 38.2759L83.663 37.6326C84.2778 38.2235 84.9984 38.6927 85.787 39.0155L85.649 40.3262ZM84.971 32.065C85.094 31.3947 85.4127 30.7759 85.8868 30.2871C86.3608 29.7982 86.9689 29.4613 87.6341 29.3189C88.2993 29.1765 88.9918 29.2351 89.6237 29.4872C90.2557 29.7392 90.7989 30.1735 91.1845 30.735C91.5701 31.2965 91.7809 31.9601 91.79 32.6416C91.7992 33.3232 91.6064 33.9922 91.236 34.5639C90.8656 35.1356 90.3344 35.5844 89.7094 35.8535C89.0844 36.1225 88.3938 36.1997 87.725 36.0754C86.8295 35.9088 86.0365 35.393 85.5201 34.6411C85.0038 33.8892 84.8063 32.9627 84.971 32.065Z" fill="#F0F0F0"/>
<path d="M196.571 173.616C196.603 175.109 196.919 176.582 197.501 177.957L195.737 179.436L198.251 183.086L200.255 181.967C201.332 182.995 202.592 183.811 203.969 184.372L203.765 186.657L208.121 187.463L208.721 185.256C210.209 185.218 211.676 184.902 213.047 184.324L214.523 186.086L218.171 183.573L217.079 181.577C218.106 180.498 218.92 179.236 219.479 177.855L221.759 178.059L222.599 173.7L220.397 173.099C220.366 171.606 220.05 170.133 219.467 168.758L221.231 167.285L218.723 163.629L216.689 164.742C215.617 163.712 214.358 162.895 212.981 162.337L213.179 160.046L208.829 159.24L208.229 161.447C206.74 161.485 205.271 161.801 203.897 162.379L202.421 160.617L198.773 163.13L199.895 165.138C198.869 166.217 198.055 167.479 197.495 168.86L195.215 168.656L194.399 172.991L196.571 173.616ZM202.571 172.257C202.785 171.087 203.341 170.006 204.168 169.152C204.995 168.298 206.057 167.709 207.218 167.46C208.379 167.211 209.588 167.313 210.692 167.753C211.795 168.193 212.744 168.952 213.417 169.932C214.09 170.913 214.457 172.071 214.473 173.261C214.488 174.451 214.151 175.619 213.504 176.617C212.856 177.615 211.928 178.397 210.836 178.866C209.745 179.335 208.539 179.468 207.371 179.25C205.812 178.956 204.432 178.056 203.534 176.745C202.635 175.435 202.292 173.821 202.577 172.257H202.571Z" fill="#F0F0F0"/>
<path d="M234.257 147.727L227.555 150.186L234.257 152.627V155.122L224.657 151.472V148.851L234.257 145.201V147.727Z" fill="#E0E0E0"/>
<path d="M241.47 140.259H244.272L237.63 159.264H234.828L241.47 140.259Z" fill="#E0E0E0"/>
<path d="M254.22 148.874V151.514L244.62 155.163V152.644L251.322 150.203L244.62 147.744V145.243L254.22 148.874Z" fill="#E0E0E0"/>
<path d="M67.704 179.821C68.664 180.11 69.108 180.717 69.108 182.166V185.515C69.08 185.723 69.0999 185.935 69.1662 186.134C69.2325 186.334 69.3435 186.515 69.4906 186.665C69.6377 186.814 69.817 186.928 70.0149 186.998C70.2127 187.068 70.4238 187.091 70.632 187.066H71.01V189.621H69.81C67.194 189.621 65.856 188.281 65.856 185.87V182.082C65.856 181.408 65.502 181.096 64.938 181.096H64.248V178.57H64.938C65.502 178.57 65.856 178.258 65.856 177.584V173.76C65.856 171.355 67.194 170.015 69.81 170.015H71.01V172.558H70.632C70.4238 172.533 70.2127 172.556 70.0149 172.626C69.817 172.695 69.6377 172.809 69.4906 172.959C69.3435 173.109 69.2325 173.29 69.1662 173.49C69.0999 173.689 69.08 173.901 69.108 174.109V177.458C69.108 178.919 68.664 179.526 67.704 179.821Z" fill="#E0E0E0"/>
<path d="M84.3365 178.57V181.126H83.6465C83.517 181.114 83.3866 181.132 83.2651 181.179C83.1436 181.225 83.0342 181.299 82.9452 181.394C82.8562 181.489 82.7899 181.603 82.7513 181.727C82.7128 181.851 82.7029 181.983 82.7225 182.112V185.9C82.7225 188.305 81.3845 189.651 78.7745 189.651H77.5745V187.096H77.9525C78.1607 187.121 78.3718 187.098 78.5697 187.028C78.7675 186.959 78.9469 186.845 79.0939 186.695C79.241 186.545 79.352 186.364 79.4183 186.164C79.4846 185.965 79.5045 185.753 79.4765 185.545V182.178C79.4765 180.729 79.9145 180.122 80.8745 179.833C79.9145 179.538 79.4765 178.931 79.4765 177.482V174.121C79.507 173.911 79.4884 173.696 79.4224 173.495C79.3563 173.293 79.2446 173.109 79.0958 172.957C78.947 172.806 78.7653 172.691 78.5649 172.622C78.3645 172.553 78.1508 172.531 77.9405 172.558H77.5625V170.003H78.7625C81.3725 170.003 82.7105 171.343 82.7105 173.748V177.542C82.6909 177.671 82.7008 177.803 82.7393 177.927C82.7779 178.052 82.8442 178.166 82.9332 178.26C83.0222 178.355 83.1316 178.429 83.2531 178.475C83.3746 178.522 83.505 178.54 83.6345 178.528L84.3365 178.57Z" fill="#E0E0E0"/>
<path d="M59.0947 57.7976C59.0947 53.6731 62.2507 50.727 66.4987 50.727C67.554 50.6798 68.6064 50.8716 69.5776 51.2879C70.5488 51.7043 71.4139 52.3346 72.1087 53.1319L70.0807 55.0018C69.6648 54.4962 69.1412 54.0901 68.5485 53.8134C67.9557 53.5367 67.3086 53.3963 66.6547 53.4025C66.0679 53.3807 65.4827 53.4777 64.9341 53.6877C64.3855 53.8977 63.8849 54.2164 63.462 54.6247C63.0391 55.033 62.7028 55.5226 62.473 56.0641C62.2433 56.6057 62.1249 57.1881 62.1249 57.7766C62.1249 58.365 62.2433 58.9474 62.473 59.489C62.7028 60.0306 63.0391 60.5201 63.462 60.9285C63.8849 61.3368 64.3855 61.6555 64.9341 61.8655C65.4827 62.0754 66.0679 62.1724 66.6547 62.1506C67.3112 62.1579 67.9608 62.0155 68.5543 61.7343C69.1478 61.4531 69.6698 61.0403 70.0807 60.5273L72.1087 62.4032C71.4169 63.2113 70.5507 63.851 69.5756 64.274C68.6005 64.6969 67.5422 64.8919 66.4807 64.8442C62.2507 64.8623 59.0947 61.9282 59.0947 57.7976Z" fill="#E0E0E0"/>
<path d="M82.9868 58.9877H79.5968V62.3066H77.0828V58.9877H73.7168V56.5827H77.0828V53.2578H79.5968V56.5827H82.9868V58.9877Z" fill="#E0E0E0"/>
<path d="M94.7994 58.9877H91.4094V62.3066H88.8954V58.9877H85.5234V56.5827H88.8954V53.2578H91.4094V56.5827H94.7994V58.9877Z" fill="#E0E0E0"/>
<path d="M109.236 126.64L111.204 124.271C112.038 125.39 112.962 125.961 114.054 125.961C115.482 125.961 116.226 125.101 116.226 123.412V116.101H110.826V113.245H119.748V123.213C119.748 127.013 117.84 128.883 114.222 128.883C113.275 128.919 112.332 128.735 111.468 128.346C110.603 127.957 109.839 127.373 109.236 126.64Z" fill="#E0E0E0"/>
<path d="M121.884 127.518L123 125.059C124.24 125.799 125.655 126.194 127.098 126.202C128.676 126.202 129.27 125.787 129.27 125.125C129.27 123.195 122.148 125.168 122.148 120.448C122.148 118.205 124.164 116.624 127.602 116.624C129.177 116.593 130.736 116.948 132.144 117.658L131.004 120.099C129.967 119.51 128.794 119.205 127.602 119.215C126.072 119.215 125.412 119.702 125.412 120.316C125.412 122.336 132.534 120.382 132.534 125.035C132.534 127.236 130.5 128.793 126.966 128.793C125.189 128.823 123.436 128.384 121.884 127.518Z" fill="#E0E0E0"/>
<path d="M150.001 224C214.25 224 266.335 220.953 266.335 217.194C266.335 213.435 214.25 210.388 150.001 210.388C85.7515 210.388 33.667 213.435 33.667 217.194C33.667 220.953 85.7515 224 150.001 224Z" fill="#F5F5F5"/>
<path d="M195.559 22.8535H177.661C176.909 22.8535 176.299 23.4646 176.299 24.2183V42.1535C176.299 42.9073 176.909 43.5184 177.661 43.5184H195.559C196.311 43.5184 196.921 42.9073 196.921 42.1535V24.2183C196.921 23.4646 196.311 22.8535 195.559 22.8535Z" fill="#2FB857"/>
<g opacity="0.4">
<path d="M195.558 22.8535H177.66C176.908 22.8535 176.298 23.4646 176.298 24.2183V42.1535C176.298 42.9073 176.908 43.5184 177.66 43.5184H195.558C196.31 43.5184 196.92 42.9073 196.92 42.1535V24.2183C196.92 23.4646 196.31 22.8535 195.558 22.8535Z" fill="white"/>
</g>
<path d="M183.841 32.0945L180.241 33.4112L183.841 34.7159V36.0747L178.729 34.1207V32.7258L183.841 30.7717V32.0945Z" fill="white"/>
<path d="M187.692 28.1145H189.186L185.634 38.2575H184.14L187.692 28.1145Z" fill="white"/>
<path d="M194.49 32.7138V34.1086L189.378 36.0747V34.7279L192.978 33.4232L189.378 32.1065V30.7717L194.49 32.7138Z" fill="white"/>
<path d="M180.84 47.2941V52.3085H179.682V50.2462H177.402V52.3085H176.244V47.2881H177.402V49.3023H179.682V47.3242L180.84 47.2941Z" fill="#263238"/>
<path d="M183.073 48.2379H181.465V47.2939H185.833V48.2379H184.231V52.3083H183.073V48.2379Z" fill="#263238"/>
<path d="M191.023 52.3085V49.3023L189.547 51.7854H189.001L187.531 49.3804V52.3085H186.445V47.2881H187.405L189.277 50.4086L191.125 47.2881H192.079V52.3085H191.023Z" fill="#263238"/>
<path d="M193.303 47.2939H194.461V51.3644H196.975V52.3083H193.303V47.2939Z" fill="#263238"/>
<g opacity="0.6">
<path d="M180.84 47.2941V52.3085H179.682V50.2462H177.402V52.3085H176.244V47.2881H177.402V49.3023H179.682V47.3242L180.84 47.2941Z" fill="white"/>
<path d="M183.073 48.2379H181.465V47.2939H185.833V48.2379H184.231V52.3083H183.073V48.2379Z" fill="white"/>
<path d="M191.021 52.3085V49.3023L189.545 51.7854H188.999L187.529 49.3804V52.3085H186.443V47.2881H187.403L189.275 50.4086L191.123 47.2881H192.077V52.3085H191.021Z" fill="white"/>
<path d="M193.303 47.2939H194.461V51.3644H196.975V52.3083H193.303V47.2939Z" fill="white"/>
</g>
<path d="M239.663 33.8687H221.765C221.013 33.8687 220.403 34.4797 220.403 35.2335V53.1687C220.403 53.9224 221.013 54.5335 221.765 54.5335H239.663C240.416 54.5335 241.025 53.9224 241.025 53.1687V35.2335C241.025 34.4797 240.416 33.8687 239.663 33.8687Z" fill="#2FB857"/>
<g opacity="0.4">
<path d="M239.665 33.8687H221.767C221.015 33.8687 220.405 34.4797 220.405 35.2335V53.1687C220.405 53.9224 221.015 54.5335 221.767 54.5335H239.665C240.417 54.5335 241.027 53.9224 241.027 53.1687V35.2335C241.027 34.4797 240.417 33.8687 239.665 33.8687Z" fill="white"/>
</g>
<path d="M227.335 44.1973C227.827 44.3476 228.055 44.6602 228.055 45.3998V47.1254C228.042 47.2323 228.053 47.3409 228.087 47.4429C228.122 47.545 228.179 47.6378 228.255 47.7143C228.331 47.7908 228.423 47.849 228.525 47.8844C228.626 47.9199 228.734 47.9317 228.841 47.919H229.033V49.2357H228.433C227.089 49.2357 226.405 48.5443 226.405 47.3057V45.3577C226.414 45.2918 226.409 45.2247 226.389 45.1613C226.368 45.0979 226.334 45.0399 226.289 44.9914C226.243 44.943 226.188 44.9054 226.126 44.8813C226.064 44.8573 225.997 44.8475 225.931 44.8527H225.577V43.5359H225.931C225.997 43.5411 226.064 43.5312 226.126 43.5072C226.188 43.4832 226.243 43.4456 226.289 43.3971C226.334 43.3487 226.368 43.2906 226.389 43.2272C226.409 43.1639 226.414 43.0967 226.405 43.0309V41.0828C226.405 39.8443 227.089 39.1528 228.433 39.1528H229.033V40.4696H228.841C228.734 40.4568 228.626 40.4687 228.525 40.5041C228.423 40.5396 228.331 40.5978 228.255 40.6743C228.179 40.7508 228.122 40.8436 228.087 40.9456C228.053 41.0477 228.042 41.1563 228.055 41.2632V42.9888C228.055 43.7343 227.827 44.047 227.335 44.1973Z" fill="white"/>
<path d="M235.878 43.5424V44.8591H235.524C235.458 44.854 235.391 44.8638 235.329 44.8878C235.267 44.9118 235.212 44.9494 235.166 44.9979C235.121 45.0463 235.087 45.1044 235.067 45.1678C235.046 45.2312 235.041 45.2983 235.05 45.3641V47.3122C235.05 48.5507 234.36 49.2422 233.022 49.2422H232.422V47.9254H232.614C232.721 47.9382 232.829 47.9263 232.931 47.8909C233.032 47.8554 233.124 47.7972 233.2 47.7207C233.276 47.6442 233.333 47.5514 233.368 47.4494C233.402 47.3473 233.413 47.2387 233.4 47.1318V45.4062C233.4 44.6607 233.622 44.348 234.12 44.2037C233.622 44.0534 233.4 43.7408 233.4 43.0012V41.2757C233.413 41.1687 233.402 41.0601 233.368 40.9581C233.333 40.8561 233.276 40.7633 233.2 40.6868C233.124 40.6103 233.032 40.5521 232.931 40.5166C232.829 40.4811 232.721 40.4693 232.614 40.482H232.422V39.1653H233.022C234.36 39.1653 235.05 39.8567 235.05 41.0953V43.0433C235.041 43.1092 235.046 43.1763 235.067 43.2397C235.087 43.3031 235.121 43.3611 235.166 43.4096C235.212 43.458 235.267 43.4957 235.329 43.5197C235.391 43.5437 235.458 43.5535 235.524 43.5484L235.878 43.5424Z" fill="white"/>
<path d="M223.801 60.8944C223.83 60.3497 224.02 59.8258 224.346 59.3889C224.672 58.952 225.12 58.6214 225.633 58.4389C226.146 58.2564 226.702 58.23 227.23 58.3631C227.758 58.4962 228.235 58.7828 228.601 59.1869L227.857 59.8783C227.705 59.6897 227.513 59.5377 227.295 59.4336C227.077 59.3295 226.838 59.276 226.597 59.2771C226.378 59.2637 226.158 59.2953 225.952 59.3701C225.746 59.4448 225.557 59.5611 225.397 59.7118C225.237 59.8624 225.11 60.0443 225.023 60.2461C224.936 60.448 224.891 60.6655 224.891 60.8854C224.891 61.1053 224.936 61.3229 225.023 61.5247C225.11 61.7266 225.237 61.9084 225.397 62.0591C225.557 62.2098 225.746 62.326 225.952 62.4008C226.158 62.4756 226.378 62.5072 226.597 62.4938C226.838 62.4944 227.077 62.4407 227.295 62.3367C227.513 62.2326 227.705 62.0808 227.857 61.8925L228.601 62.5779C228.237 62.9846 227.76 63.2738 227.232 63.4088C226.703 63.5438 226.147 63.5187 225.633 63.3364C225.119 63.1542 224.67 62.8231 224.344 62.3852C224.018 61.9472 223.829 61.4221 223.801 60.8764V60.8944Z" fill="#263238"/>
<path d="M228.912 62.9147L229.302 62.0369C229.791 62.371 230.367 62.553 230.958 62.5599C231.642 62.5599 231.924 62.3315 231.924 62.0248C231.924 61.0809 229.008 61.7302 229.008 59.8664C229.008 59.0126 229.698 58.2971 231.12 58.2971C231.729 58.2869 232.33 58.4405 232.86 58.742L232.506 59.6259C232.083 59.3779 231.604 59.2433 231.114 59.2351C230.43 59.2351 230.16 59.4876 230.16 59.8062C230.16 60.7322 233.076 60.0948 233.076 61.9346C233.076 62.7764 232.38 63.4919 230.952 63.4919C230.23 63.509 229.519 63.3079 228.912 62.9147Z" fill="#263238"/>
<path d="M233.479 62.9151L233.875 62.0373C234.362 62.374 234.939 62.5563 235.531 62.5604C236.215 62.5604 236.497 62.3319 236.497 62.0252C236.497 61.0813 233.581 61.7306 233.581 59.8668C233.581 59.013 234.271 58.2975 235.693 58.2975C236.302 58.2882 236.902 58.4417 237.433 58.7424L237.073 59.6263C236.652 59.3778 236.175 59.2431 235.687 59.2355C234.997 59.2355 234.733 59.488 234.733 59.8066C234.733 60.7326 237.649 60.0952 237.649 61.9351C237.649 62.7768 236.953 63.4923 235.519 63.4923C234.796 63.5094 234.085 63.3083 233.479 62.9151Z" fill="#263238"/>
<g opacity="0.6">
<path d="M223.8 60.8944C223.829 60.3497 224.019 59.8258 224.345 59.3889C224.671 58.952 225.119 58.6214 225.632 58.4389C226.145 58.2564 226.701 58.23 227.229 58.3631C227.757 58.4962 228.234 58.7828 228.6 59.1869L227.856 59.8783C227.704 59.6897 227.512 59.5377 227.294 59.4336C227.076 59.3295 226.837 59.276 226.596 59.2771C226.377 59.2637 226.157 59.2953 225.951 59.3701C225.745 59.4448 225.556 59.5611 225.396 59.7118C225.236 59.8624 225.109 60.0443 225.022 60.2461C224.935 60.448 224.89 60.6655 224.89 60.8854C224.89 61.1053 224.935 61.3229 225.022 61.5247C225.109 61.7266 225.236 61.9084 225.396 62.0591C225.556 62.2098 225.745 62.326 225.951 62.4008C226.157 62.4756 226.377 62.5072 226.596 62.4938C226.837 62.4944 227.076 62.4407 227.294 62.3367C227.512 62.2326 227.704 62.0808 227.856 61.8925L228.6 62.5779C228.236 62.9846 227.759 63.2738 227.231 63.4088C226.702 63.5438 226.146 63.5187 225.632 63.3364C225.118 63.1542 224.669 62.8231 224.343 62.3852C224.017 61.9472 223.828 61.4221 223.8 60.8764V60.8944Z" fill="white"/>
<path d="M228.912 62.9149L229.302 62.0371C229.791 62.3712 230.367 62.5532 230.958 62.5602C231.642 62.5602 231.924 62.3317 231.924 62.0251C231.924 61.0811 229.008 61.7305 229.008 59.8666C229.008 59.0128 229.698 58.2974 231.12 58.2974C231.729 58.2871 232.33 58.4408 232.86 58.7423L232.506 59.6261C232.083 59.3781 231.604 59.2435 231.114 59.2353C230.43 59.2353 230.16 59.4878 230.16 59.8065C230.16 60.7324 233.076 60.0951 233.076 61.9349C233.076 62.7766 232.38 63.4921 230.952 63.4921C230.23 63.5092 229.519 63.3081 228.912 62.9149Z" fill="white"/>
<path d="M233.479 62.9153L233.875 62.0375C234.362 62.3743 234.939 62.5565 235.531 62.5606C236.215 62.5606 236.497 62.3321 236.497 62.0255C236.497 61.0815 233.581 61.7309 233.581 59.867C233.581 59.0133 234.271 58.2978 235.693 58.2978C236.302 58.2884 236.902 58.442 237.433 58.7427L237.073 59.6265C236.652 59.378 236.175 59.2433 235.687 59.2357C234.997 59.2357 234.733 59.4882 234.733 59.8069C234.733 60.7328 237.649 60.0955 237.649 61.9353C237.649 62.777 236.953 63.4925 235.519 63.4925C234.796 63.5097 234.085 63.3085 233.479 62.9153Z" fill="white"/>
</g>
<path d="M162.636 31.8535H89.1299V85.172H162.636V31.8535Z" fill="black"/>
<path opacity="0.9" d="M162.636 31.8535H89.1299V85.172H162.636V31.8535Z" fill="white"/>
<path opacity="0.1" d="M99.3659 31.8535H89.1299V85.172H99.3659V31.8535Z" fill="black"/>
<path d="M162.636 31.8535H89.1299V36.8378H162.636V31.8535Z" fill="#2FB857"/>
<g opacity="0.2">
<path d="M118.624 44.3587H105.238C105.079 44.3587 104.926 44.2954 104.813 44.1826C104.701 44.0699 104.638 43.917 104.638 43.7575C104.638 43.598 104.701 43.4451 104.813 43.3324C104.926 43.2196 105.079 43.1562 105.238 43.1562H118.624C118.783 43.1562 118.935 43.2196 119.048 43.3324C119.16 43.4451 119.224 43.598 119.224 43.7575C119.224 43.917 119.16 44.0699 119.048 44.1826C118.935 44.2954 118.783 44.3587 118.624 44.3587Z" fill="black"/>
<path d="M148.199 44.3587H122.189C122.03 44.3587 121.877 44.2954 121.765 44.1826C121.652 44.0699 121.589 43.917 121.589 43.7575C121.589 43.598 121.652 43.4451 121.765 43.3324C121.877 43.2196 122.03 43.1562 122.189 43.1562H148.199C148.358 43.1562 148.511 43.2196 148.623 43.3324C148.736 43.4451 148.799 43.598 148.799 43.7575C148.799 43.917 148.736 44.0699 148.623 44.1826C148.511 44.2954 148.358 44.3587 148.199 44.3587Z" fill="black"/>
<path d="M142.006 48.2855H107.038C106.878 48.2855 106.726 48.2222 106.613 48.1094C106.501 47.9966 106.438 47.8437 106.438 47.6843C106.438 47.5248 106.501 47.3719 106.613 47.2591C106.726 47.1464 106.878 47.083 107.038 47.083H142.006C142.165 47.083 142.317 47.1464 142.43 47.2591C142.542 47.3719 142.606 47.5248 142.606 47.6843C142.606 47.8437 142.542 47.9966 142.43 48.1094C142.317 48.2222 142.165 48.2855 142.006 48.2855Z" fill="black"/>
<path d="M127.762 52.2047H105.238C105.079 52.2047 104.926 52.1413 104.813 52.0286C104.701 51.9158 104.638 51.7629 104.638 51.6034C104.638 51.444 104.701 51.2911 104.813 51.1783C104.926 51.0655 105.079 51.0022 105.238 51.0022H127.762C127.921 51.0022 128.073 51.0655 128.186 51.1783C128.298 51.2911 128.362 51.444 128.362 51.6034C128.362 51.7629 128.298 51.9158 128.186 52.0286C128.073 52.1413 127.921 52.2047 127.762 52.2047Z" fill="black"/>
<path d="M148.199 52.2047H132.059C131.9 52.2047 131.747 52.1413 131.635 52.0286C131.522 51.9158 131.459 51.7629 131.459 51.6034C131.459 51.444 131.522 51.2911 131.635 51.1783C131.747 51.0655 131.9 51.0022 132.059 51.0022H148.199C148.358 51.0022 148.511 51.0655 148.623 51.1783C148.736 51.2911 148.799 51.444 148.799 51.6034C148.799 51.7629 148.736 51.9158 148.623 52.0286C148.511 52.1413 148.358 52.2047 148.199 52.2047Z" fill="black"/>
<path d="M117.676 56.1312H105.238C105.079 56.1312 104.926 56.0679 104.813 55.9551C104.701 55.8423 104.638 55.6894 104.638 55.53C104.638 55.3705 104.701 55.2176 104.813 55.1048C104.926 54.9921 105.079 54.9287 105.238 54.9287H117.676C117.835 54.9287 117.987 54.9921 118.1 55.1048C118.212 55.2176 118.276 55.3705 118.276 55.53C118.276 55.6894 118.212 55.8423 118.1 55.9551C117.987 56.0679 117.835 56.1312 117.676 56.1312Z" fill="black"/>
<path d="M141.292 56.1312H121.708C121.549 56.1312 121.397 56.0679 121.284 55.9551C121.172 55.8423 121.108 55.6894 121.108 55.53C121.108 55.3705 121.172 55.2176 121.284 55.1048C121.397 54.9921 121.549 54.9287 121.708 54.9287H141.292C141.452 54.9287 141.604 54.9921 141.717 55.1048C141.829 55.2176 141.892 55.3705 141.892 55.53C141.892 55.6894 141.829 55.8423 141.717 55.9551C141.604 56.0679 141.452 56.1312 141.292 56.1312Z" fill="black"/>
<path d="M123.772 60.058H107.038C106.878 60.058 106.726 59.9946 106.613 59.8819C106.501 59.7691 106.438 59.6162 106.438 59.4567C106.438 59.2973 106.501 59.1443 106.613 59.0316C106.726 58.9188 106.878 58.8555 107.038 58.8555H123.772C123.931 58.8555 124.083 58.9188 124.196 59.0316C124.308 59.1443 124.372 59.2973 124.372 59.4567C124.372 59.6162 124.308 59.7691 124.196 59.8819C124.083 59.9946 123.931 60.058 123.772 60.058Z" fill="black"/>
<path d="M125.866 63.983H107.038C106.878 63.983 106.726 63.9197 106.613 63.8069C106.501 63.6942 106.438 63.5412 106.438 63.3818C106.438 63.2223 106.501 63.0694 106.613 62.9566C106.726 62.8439 106.878 62.7805 107.038 62.7805H125.866C126.025 62.7805 126.177 62.8439 126.29 62.9566C126.402 63.0694 126.466 63.2223 126.466 63.3818C126.466 63.5412 126.402 63.6942 126.29 63.8069C126.177 63.9197 126.025 63.983 125.866 63.983Z" fill="black"/>
<path d="M148.197 63.983H128.997C128.838 63.983 128.686 63.9197 128.573 63.8069C128.461 63.6942 128.397 63.5412 128.397 63.3818C128.397 63.2223 128.461 63.0694 128.573 62.9566C128.686 62.8439 128.838 62.7805 128.997 62.7805H148.197C148.357 62.7805 148.509 62.8439 148.622 62.9566C148.734 63.0694 148.797 63.2223 148.797 63.3818C148.797 63.5412 148.734 63.6942 148.622 63.8069C148.509 63.9197 148.357 63.983 148.197 63.983Z" fill="black"/>
<path d="M116.014 67.9037H105.214C105.055 67.9037 104.903 67.8403 104.79 67.7276C104.677 67.6148 104.614 67.4619 104.614 67.3024C104.614 67.143 104.677 66.99 104.79 66.8773C104.903 66.7645 105.055 66.7012 105.214 66.7012H116.014C116.173 66.7012 116.326 66.7645 116.439 66.8773C116.551 66.99 116.614 67.143 116.614 67.3024C116.614 67.4619 116.551 67.6148 116.439 67.7276C116.326 67.8403 116.173 67.9037 116.014 67.9037Z" fill="black"/>
<path d="M148.199 67.9037H119.693C119.534 67.9037 119.381 67.8403 119.269 67.7276C119.156 67.6148 119.093 67.4619 119.093 67.3024C119.093 67.143 119.156 66.99 119.269 66.8773C119.381 66.7645 119.534 66.7012 119.693 66.7012H148.199C148.358 66.7012 148.511 66.7645 148.623 66.8773C148.736 66.99 148.799 67.143 148.799 67.3024C148.799 67.4619 148.736 67.6148 148.623 67.7276C148.511 67.8403 148.358 67.9037 148.199 67.9037Z" fill="black"/>
<path d="M125.746 71.8299H107.038C106.878 71.8299 106.726 71.7666 106.613 71.6538C106.501 71.5411 106.438 71.3881 106.438 71.2287C106.438 71.0692 106.501 70.9163 106.613 70.8035C106.726 70.6908 106.878 70.6274 107.038 70.6274H125.746C125.905 70.6274 126.057 70.6908 126.17 70.8035C126.282 70.9163 126.346 71.0692 126.346 71.2287C126.346 71.3881 126.282 71.5411 126.17 71.6538C126.057 71.7666 125.905 71.8299 125.746 71.8299Z" fill="black"/>
<path d="M140.464 71.8299H128.356C128.197 71.8299 128.044 71.7666 127.932 71.6538C127.819 71.5411 127.756 71.3881 127.756 71.2287C127.756 71.0692 127.819 70.9163 127.932 70.8035C128.044 70.6908 128.197 70.6274 128.356 70.6274H140.464C140.623 70.6274 140.776 70.6908 140.888 70.8035C141.001 70.9163 141.064 71.0692 141.064 71.2287C141.064 71.3881 141.001 71.5411 140.888 71.6538C140.776 71.7666 140.623 71.8299 140.464 71.8299Z" fill="black"/>
<path d="M128.572 75.7555H107.038C106.878 75.7555 106.726 75.6921 106.613 75.5794C106.501 75.4666 106.438 75.3137 106.438 75.1542C106.438 74.9948 106.501 74.8418 106.613 74.7291C106.726 74.6163 106.878 74.553 107.038 74.553H128.572C128.731 74.553 128.883 74.6163 128.996 74.7291C129.108 74.8418 129.172 74.9948 129.172 75.1542C129.172 75.3137 129.108 75.4666 128.996 75.5794C128.883 75.6921 128.731 75.7555 128.572 75.7555Z" fill="black"/>
</g>
<path opacity="0.4" d="M159.473 35.4071C160.04 35.4071 160.499 34.9468 160.499 34.379C160.499 33.8111 160.04 33.3508 159.473 33.3508C158.907 33.3508 158.447 33.8111 158.447 34.379C158.447 34.9468 158.907 35.4071 159.473 35.4071Z" fill="white"/>
<path opacity="0.4" d="M155.869 35.4071C156.435 35.4071 156.895 34.9468 156.895 34.379C156.895 33.8111 156.435 33.3508 155.869 33.3508C155.302 33.3508 154.843 33.8111 154.843 34.379C154.843 34.9468 155.302 35.4071 155.869 35.4071Z" fill="white"/>
<path opacity="0.4" d="M152.268 35.4071C152.835 35.4071 153.294 34.9468 153.294 34.379C153.294 33.8111 152.835 33.3508 152.268 33.3508C151.702 33.3508 151.242 33.8111 151.242 34.379C151.242 34.9468 151.702 35.4071 152.268 35.4071Z" fill="white"/>
<g opacity="0.2">
<path d="M94.4271 44.3587C94.268 44.3587 94.1154 44.2954 94.0029 44.1826C93.8904 44.0699 93.8271 43.917 93.8271 43.7575C93.8271 43.598 93.8904 43.4451 94.0029 43.3324C94.1154 43.2196 94.268 43.1562 94.4271 43.1562C94.5863 43.1562 94.7389 43.2196 94.8514 43.3324C94.9639 43.4451 95.0271 43.598 95.0271 43.7575C95.0271 43.917 94.9639 44.0699 94.8514 44.1826C94.7389 44.2954 94.5863 44.3587 94.4271 44.3587Z" fill="black"/>
<path d="M94.4271 48.2855C94.268 48.2855 94.1154 48.2222 94.0029 48.1094C93.8904 47.9966 93.8271 47.8437 93.8271 47.6843C93.8271 47.5248 93.8904 47.3719 94.0029 47.2591C94.1154 47.1464 94.268 47.083 94.4271 47.083C94.5863 47.083 94.7389 47.1464 94.8514 47.2591C94.9639 47.3719 95.0271 47.5248 95.0271 47.6843C95.0271 47.8437 94.9639 47.9966 94.8514 48.1094C94.7389 48.2222 94.5863 48.2855 94.4271 48.2855Z" fill="black"/>
<path d="M94.4271 52.2047C94.268 52.2047 94.1154 52.1413 94.0029 52.0286C93.8904 51.9158 93.8271 51.7629 93.8271 51.6034C93.8271 51.444 93.8904 51.2911 94.0029 51.1783C94.1154 51.0655 94.268 51.0022 94.4271 51.0022C94.5863 51.0022 94.7389 51.0655 94.8514 51.1783C94.9639 51.2911 95.0271 51.444 95.0271 51.6034C95.0271 51.7629 94.9639 51.9158 94.8514 52.0286C94.7389 52.1413 94.5863 52.2047 94.4271 52.2047Z" fill="black"/>
<path d="M94.4271 56.1312C94.268 56.1312 94.1154 56.0679 94.0029 55.9551C93.8904 55.8423 93.8271 55.6894 93.8271 55.53C93.8271 55.3705 93.8904 55.2176 94.0029 55.1048C94.1154 54.9921 94.268 54.9287 94.4271 54.9287C94.5863 54.9287 94.7389 54.9921 94.8514 55.1048C94.9639 55.2176 95.0271 55.3705 95.0271 55.53C95.0271 55.6894 94.9639 55.8423 94.8514 55.9551C94.7389 56.0679 94.5863 56.1312 94.4271 56.1312Z" fill="black"/>
<path d="M94.4271 60.058C94.268 60.058 94.1154 59.9946 94.0029 59.8819C93.8904 59.7691 93.8271 59.6162 93.8271 59.4567C93.8271 59.2973 93.8904 59.1443 94.0029 59.0316C94.1154 58.9188 94.268 58.8555 94.4271 58.8555C94.5863 58.8555 94.7389 58.9188 94.8514 59.0316C94.9639 59.1443 95.0271 59.2973 95.0271 59.4567C95.0271 59.6162 94.9639 59.7691 94.8514 59.8819C94.7389 59.9946 94.5863 60.058 94.4271 60.058Z" fill="black"/>
<path d="M94.4271 63.983C94.268 63.983 94.1154 63.9197 94.0029 63.8069C93.8904 63.6942 93.8271 63.5412 93.8271 63.3818C93.8271 63.2223 93.8904 63.0694 94.0029 62.9566C94.1154 62.8439 94.268 62.7805 94.4271 62.7805C94.5863 62.7805 94.7389 62.8439 94.8514 62.9566C94.9639 63.0694 95.0271 63.2223 95.0271 63.3818C95.0271 63.5412 94.9639 63.6942 94.8514 63.8069C94.7389 63.9197 94.5863 63.983 94.4271 63.983Z" fill="black"/>
<path d="M94.4271 67.9037C94.268 67.9037 94.1154 67.8403 94.0029 67.7276C93.8904 67.6148 93.8271 67.4619 93.8271 67.3024C93.8271 67.143 93.8904 66.99 94.0029 66.8773C94.1154 66.7645 94.268 66.7012 94.4271 66.7012C94.5863 66.7012 94.7389 66.7645 94.8514 66.8773C94.9639 66.99 95.0271 67.143 95.0271 67.3024C95.0271 67.4619 94.9639 67.6148 94.8514 67.7276C94.7389 67.8403 94.5863 67.9037 94.4271 67.9037Z" fill="black"/>
<path d="M94.4271 71.8299C94.268 71.8299 94.1154 71.7666 94.0029 71.6538C93.8904 71.5411 93.8271 71.3881 93.8271 71.2287C93.8271 71.0692 93.8904 70.9163 94.0029 70.8035C94.1154 70.6908 94.268 70.6274 94.4271 70.6274C94.5863 70.6274 94.7389 70.6908 94.8514 70.8035C94.9639 70.9163 95.0271 71.0692 95.0271 71.2287C95.0271 71.3881 94.9639 71.5411 94.8514 71.6538C94.7389 71.7666 94.5863 71.8299 94.4271 71.8299Z" fill="black"/>
<path d="M94.4271 75.7555C94.268 75.7555 94.1154 75.6921 94.0029 75.5794C93.8904 75.4666 93.8271 75.3137 93.8271 75.1542C93.8271 74.9948 93.8904 74.8418 94.0029 74.7291C94.1154 74.6163 94.268 74.553 94.4271 74.553C94.5863 74.553 94.7389 74.6163 94.8514 74.7291C94.9639 74.8418 95.0271 74.9948 95.0271 75.1542C95.0271 75.3137 94.9639 75.4666 94.8514 75.5794C94.7389 75.6921 94.5863 75.7555 94.4271 75.7555Z" fill="black"/>
</g>
<path d="M229.212 75.3604H132.894V137.162H229.212V75.3604Z" fill="#263238"/>
<path opacity="0.9" d="M229.212 75.3604H132.894V137.162H229.212V75.3604Z" fill="white"/>
<path opacity="0.1" d="M147.918 75.3604H132.894V137.162H147.918V75.3604Z" fill="black"/>
<path d="M229.212 75.3604H132.894V80.3447H229.212V75.3604Z" fill="#2FB857"/>
<path d="M139.697 85.8095L138.101 86.4108L139.697 87.012V87.6133L137.417 86.7415V86.1402L139.697 85.2744V85.8095Z" fill="white"/>
<path d="M141.421 84.0305H142.087L140.503 88.5579H139.837L141.421 84.0305Z" fill="white"/>
<path d="M144.455 86.0801V86.6814L142.175 87.5532V86.9519L143.771 86.3507L142.175 85.7494V85.1482L144.455 86.0801Z" fill="white"/>
<g opacity="0.2">
<path d="M144.119 92.6813H137.591C137.432 92.6813 137.279 92.6179 137.167 92.5052C137.054 92.3924 136.991 92.2395 136.991 92.08C136.991 91.9205 137.054 91.7676 137.167 91.6549C137.279 91.5421 137.432 91.4788 137.591 91.4788H144.119C144.278 91.4788 144.431 91.5421 144.543 91.6549C144.656 91.7676 144.719 91.9205 144.719 92.08C144.719 92.2395 144.656 92.3924 144.543 92.5052C144.431 92.6179 144.278 92.6813 144.119 92.6813Z" fill="black"/>
<path d="M144.119 96.6017H137.591C137.432 96.6017 137.279 96.5383 137.167 96.4256C137.054 96.3128 136.991 96.1599 136.991 96.0004C136.991 95.841 137.054 95.688 137.167 95.5753C137.279 95.4625 137.432 95.3992 137.591 95.3992H144.119C144.278 95.3992 144.431 95.4625 144.543 95.5753C144.656 95.688 144.719 95.841 144.719 96.0004C144.719 96.1599 144.656 96.3128 144.543 96.4256C144.431 96.5383 144.278 96.6017 144.119 96.6017Z" fill="black"/>
<path d="M144.119 100.527H137.591C137.432 100.527 137.279 100.464 137.167 100.351C137.054 100.238 136.991 100.085 136.991 99.926C136.991 99.7665 137.054 99.6136 137.167 99.5008C137.279 99.3881 137.432 99.3247 137.591 99.3247H144.119C144.278 99.3247 144.431 99.3881 144.543 99.5008C144.656 99.6136 144.719 99.7665 144.719 99.926C144.719 100.085 144.656 100.238 144.543 100.351C144.431 100.464 144.278 100.527 144.119 100.527Z" fill="black"/>
<path d="M144.119 104.454H137.591C137.432 104.454 137.279 104.391 137.167 104.278C137.054 104.165 136.991 104.012 136.991 103.853C136.991 103.693 137.054 103.54 137.167 103.428C137.279 103.315 137.432 103.251 137.591 103.251H144.119C144.278 103.251 144.431 103.315 144.543 103.428C144.656 103.54 144.719 103.693 144.719 103.853C144.719 104.012 144.656 104.165 144.543 104.278C144.431 104.391 144.278 104.454 144.119 104.454Z" fill="black"/>
<path d="M144.119 108.38H137.591C137.432 108.38 137.279 108.317 137.167 108.204C137.054 108.091 136.991 107.938 136.991 107.779C136.991 107.619 137.054 107.466 137.167 107.354C137.279 107.241 137.432 107.177 137.591 107.177H144.119C144.278 107.177 144.431 107.241 144.543 107.354C144.656 107.466 144.719 107.619 144.719 107.779C144.719 107.938 144.656 108.091 144.543 108.204C144.431 108.317 144.278 108.38 144.119 108.38Z" fill="black"/>
<path d="M144.119 112.3H137.591C137.432 112.3 137.279 112.236 137.167 112.124C137.054 112.011 136.991 111.858 136.991 111.698C136.991 111.539 137.054 111.386 137.167 111.273C137.279 111.161 137.432 111.097 137.591 111.097H144.119C144.278 111.097 144.431 111.161 144.543 111.273C144.656 111.386 144.719 111.539 144.719 111.698C144.719 111.858 144.656 112.011 144.543 112.124C144.431 112.236 144.278 112.3 144.119 112.3Z" fill="black"/>
<path d="M144.119 116.226H137.591C137.432 116.226 137.279 116.163 137.167 116.05C137.054 115.938 136.991 115.785 136.991 115.625C136.991 115.466 137.054 115.313 137.167 115.2C137.279 115.087 137.432 115.024 137.591 115.024H144.119C144.278 115.024 144.431 115.087 144.543 115.2C144.656 115.313 144.719 115.466 144.719 115.625C144.719 115.785 144.656 115.938 144.543 116.05C144.431 116.163 144.278 116.226 144.119 116.226Z" fill="black"/>
<path d="M144.119 120.152H137.591C137.432 120.152 137.279 120.089 137.167 119.976C137.054 119.864 136.991 119.711 136.991 119.551C136.991 119.392 137.054 119.239 137.167 119.126C137.279 119.013 137.432 118.95 137.591 118.95H144.119C144.278 118.95 144.431 119.013 144.543 119.126C144.656 119.239 144.719 119.392 144.719 119.551C144.719 119.711 144.656 119.864 144.543 119.976C144.431 120.089 144.278 120.152 144.119 120.152Z" fill="black"/>
<path d="M144.119 124.078H137.591C137.432 124.078 137.279 124.015 137.167 123.902C137.054 123.789 136.991 123.636 136.991 123.477C136.991 123.317 137.054 123.164 137.167 123.052C137.279 122.939 137.432 122.875 137.591 122.875H144.119C144.278 122.875 144.431 122.939 144.543 123.052C144.656 123.164 144.719 123.317 144.719 123.477C144.719 123.636 144.656 123.789 144.543 123.902C144.431 124.015 144.278 124.078 144.119 124.078Z" fill="black"/>
</g>
<path d="M162.99 92.6817H149.604C149.445 92.6817 149.292 92.6184 149.18 92.5056C149.067 92.3929 149.004 92.24 149.004 92.0805C149.004 91.921 149.067 91.7681 149.18 91.6553C149.292 91.5426 149.445 91.4792 149.604 91.4792H162.99C163.149 91.4792 163.302 91.5426 163.414 91.6553C163.527 91.7681 163.59 91.921 163.59 92.0805C163.59 92.24 163.527 92.3929 163.414 92.5056C163.302 92.6184 163.149 92.6817 162.99 92.6817Z" fill="#2FB857"/>
<path d="M201.443 92.6817H166.553C166.394 92.6817 166.241 92.6184 166.129 92.5056C166.016 92.3929 165.953 92.24 165.953 92.0805C165.953 91.921 166.016 91.7681 166.129 91.6553C166.241 91.5426 166.394 91.4792 166.553 91.4792H201.443C201.602 91.4792 201.755 91.5426 201.867 91.6553C201.98 91.7681 202.043 91.921 202.043 92.0805C202.043 92.24 201.98 92.3929 201.867 92.5056C201.755 92.6184 201.602 92.6817 201.443 92.6817Z" fill="#263238"/>
<g opacity="0.2">
<path d="M217.369 92.6813H207.259C207.1 92.6813 206.947 92.6179 206.835 92.5052C206.722 92.3924 206.659 92.2395 206.659 92.08C206.659 91.9205 206.722 91.7676 206.835 91.6549C206.947 91.5421 207.1 91.4788 207.259 91.4788H217.369C217.528 91.4788 217.681 91.5421 217.793 91.6549C217.906 91.7676 217.969 91.9205 217.969 92.08C217.969 92.2395 217.906 92.3924 217.793 92.5052C217.681 92.6179 217.528 92.6813 217.369 92.6813Z" fill="#263238"/>
</g>
<g opacity="0.2">
<path d="M186.372 96.6009H151.404C151.245 96.6009 151.092 96.5376 150.979 96.4248C150.867 96.3121 150.804 96.1591 150.804 95.9997C150.804 95.8402 150.867 95.6873 150.979 95.5745C151.092 95.4618 151.245 95.3984 151.404 95.3984H186.372C186.531 95.3984 186.683 95.4618 186.796 95.5745C186.909 95.6873 186.972 95.8402 186.972 95.9997C186.972 96.1591 186.909 96.3121 186.796 96.4248C186.683 96.5376 186.531 96.6009 186.372 96.6009Z" fill="#263238"/>
</g>
<path d="M222.168 96.6014H189.6C189.441 96.6014 189.288 96.5381 189.176 96.4253C189.063 96.3126 189 96.1596 189 96.0002C189 95.8407 189.063 95.6878 189.176 95.575C189.288 95.4623 189.441 95.3989 189.6 95.3989H222.192C222.351 95.3989 222.504 95.4623 222.616 95.575C222.729 95.6878 222.792 95.8407 222.792 96.0002C222.792 96.1596 222.729 96.3126 222.616 96.4253C222.504 96.5381 222.351 96.6014 222.192 96.6014H222.168Z" fill="#2FB857"/>
<path d="M172.129 100.528H151.405C151.246 100.528 151.093 100.465 150.98 100.352C150.868 100.24 150.805 100.087 150.805 99.9272C150.805 99.7677 150.868 99.6148 150.98 99.502C151.093 99.3893 151.246 99.3259 151.405 99.3259H172.129C172.288 99.3259 172.44 99.3893 172.553 99.502C172.665 99.6148 172.729 99.7677 172.729 99.9272C172.729 100.087 172.665 100.24 172.553 100.352C172.44 100.465 172.288 100.528 172.129 100.528Z" fill="#263238"/>
<path d="M196.799 100.528H176.399C176.24 100.528 176.087 100.465 175.975 100.352C175.862 100.24 175.799 100.087 175.799 99.9272C175.799 99.7677 175.862 99.6148 175.975 99.502C176.087 99.3893 176.24 99.3259 176.399 99.3259H196.799C196.958 99.3259 197.111 99.3893 197.223 99.502C197.336 99.6148 197.399 99.7677 197.399 99.9272C197.399 100.087 197.336 100.24 197.223 100.352C197.111 100.465 196.958 100.528 196.799 100.528Z" fill="#2FB857"/>
<path d="M222.167 100.528H200.135C199.976 100.528 199.823 100.465 199.711 100.352C199.598 100.24 199.535 100.087 199.535 99.9272C199.535 99.7677 199.598 99.6148 199.711 99.502C199.823 99.3893 199.976 99.3259 200.135 99.3259H222.167C222.326 99.3259 222.479 99.3893 222.591 99.502C222.704 99.6148 222.767 99.7677 222.767 99.9272C222.767 100.087 222.704 100.24 222.591 100.352C222.479 100.465 222.326 100.528 222.167 100.528Z" fill="#263238"/>
<path d="M174.048 104.454H161.61C161.451 104.454 161.298 104.391 161.185 104.278C161.073 104.165 161.01 104.012 161.01 103.853C161.01 103.693 161.073 103.541 161.185 103.428C161.298 103.315 161.451 103.252 161.61 103.252H174.048C174.207 103.252 174.36 103.315 174.472 103.428C174.585 103.541 174.648 103.693 174.648 103.853C174.648 104.012 174.585 104.165 174.472 104.278C174.36 104.391 174.207 104.454 174.048 104.454Z" fill="#263238"/>
<path d="M191.664 104.454H178.086C177.927 104.454 177.775 104.391 177.662 104.278C177.55 104.165 177.486 104.012 177.486 103.853C177.486 103.693 177.55 103.541 177.662 103.428C177.775 103.315 177.927 103.252 178.086 103.252H191.664C191.823 103.252 191.976 103.315 192.089 103.428C192.201 103.541 192.264 103.693 192.264 103.853C192.264 104.012 192.201 104.165 192.089 104.278C191.976 104.391 191.823 104.454 191.664 104.454Z" fill="#263238"/>
<g opacity="0.2">
<path d="M216.769 104.454H194.749C194.59 104.454 194.438 104.39 194.325 104.278C194.213 104.165 194.149 104.012 194.149 103.852C194.149 103.693 194.213 103.54 194.325 103.427C194.438 103.315 194.59 103.251 194.749 103.251H216.769C216.929 103.251 217.081 103.315 217.194 103.427C217.306 103.54 217.369 103.693 217.369 103.852C217.369 104.012 217.306 104.165 217.194 104.278C217.081 104.39 216.929 104.454 216.769 104.454Z" fill="#263238"/>
</g>
<g opacity="0.2">
<path d="M168.138 108.381H151.404C151.245 108.381 151.092 108.318 150.979 108.205C150.867 108.092 150.804 107.939 150.804 107.78C150.804 107.62 150.867 107.468 150.979 107.355C151.092 107.242 151.245 107.179 151.404 107.179H168.138C168.297 107.179 168.449 107.242 168.562 107.355C168.674 107.468 168.738 107.62 168.738 107.78C168.738 107.939 168.674 108.092 168.562 108.205C168.449 108.318 168.297 108.381 168.138 108.381Z" fill="#263238"/>
</g>
<path d="M170.233 112.301H151.405C151.246 112.301 151.093 112.238 150.98 112.125C150.868 112.012 150.805 111.859 150.805 111.7C150.805 111.54 150.868 111.387 150.98 111.274C151.093 111.162 151.246 111.098 151.405 111.098H170.233C170.392 111.098 170.544 111.162 170.657 111.274C170.769 111.387 170.833 111.54 170.833 111.7C170.833 111.859 170.769 112.012 170.657 112.125C170.544 112.238 170.392 112.301 170.233 112.301Z" fill="#2FB857"/>
<path d="M201.685 112.301H173.317C173.158 112.301 173.005 112.238 172.893 112.125C172.78 112.012 172.717 111.859 172.717 111.7C172.717 111.54 172.78 111.387 172.893 111.274C173.005 111.162 173.158 111.098 173.317 111.098H201.685C201.844 111.098 201.997 111.162 202.109 111.274C202.222 111.387 202.285 111.54 202.285 111.7C202.285 111.859 202.222 112.012 202.109 112.125C201.997 112.238 201.844 112.301 201.685 112.301Z" fill="#263238"/>
<path d="M222.167 112.301H205.121C204.962 112.301 204.81 112.238 204.697 112.125C204.585 112.012 204.521 111.859 204.521 111.7C204.521 111.54 204.585 111.387 204.697 111.274C204.81 111.162 204.962 111.098 205.121 111.098H222.167C222.327 111.098 222.479 111.162 222.592 111.274C222.704 111.387 222.767 111.54 222.767 111.7C222.767 111.859 222.704 112.012 222.592 112.125C222.479 112.238 222.327 112.301 222.167 112.301Z" fill="#263238"/>
<g opacity="0.2">
<path d="M168.186 116.226H157.386C157.227 116.226 157.074 116.163 156.962 116.05C156.849 115.937 156.786 115.784 156.786 115.625C156.786 115.465 156.849 115.313 156.962 115.2C157.074 115.087 157.227 115.024 157.386 115.024H168.186C168.345 115.024 168.498 115.087 168.61 115.2C168.723 115.313 168.786 115.465 168.786 115.625C168.786 115.784 168.723 115.937 168.61 116.05C168.498 116.163 168.345 116.226 168.186 116.226Z" fill="#263238"/>
</g>
<g opacity="0.2">
<path d="M192.54 116.226H171.864C171.705 116.226 171.552 116.163 171.439 116.05C171.327 115.937 171.264 115.784 171.264 115.625C171.264 115.465 171.327 115.313 171.439 115.2C171.552 115.087 171.705 115.024 171.864 115.024H192.54C192.699 115.024 192.851 115.087 192.964 115.2C193.076 115.313 193.14 115.465 193.14 115.625C193.14 115.784 193.076 115.937 192.964 116.05C192.851 116.163 192.699 116.226 192.54 116.226Z" fill="#263238"/>
</g>
<path d="M216.769 116.227H196.579C196.419 116.227 196.267 116.163 196.154 116.051C196.042 115.938 195.979 115.785 195.979 115.625C195.979 115.466 196.042 115.313 196.154 115.2C196.267 115.088 196.419 115.024 196.579 115.024H216.769C216.928 115.024 217.08 115.088 217.193 115.2C217.305 115.313 217.369 115.466 217.369 115.625C217.369 115.785 217.305 115.938 217.193 116.051C217.08 116.163 216.928 116.227 216.769 116.227Z" fill="#263238"/>
<path d="M176.119 120.153H163.411C163.251 120.153 163.099 120.09 162.986 119.977C162.874 119.864 162.811 119.711 162.811 119.552C162.811 119.392 162.874 119.24 162.986 119.127C163.099 119.014 163.251 118.951 163.411 118.951H176.119C176.278 118.951 176.43 119.014 176.543 119.127C176.655 119.24 176.719 119.392 176.719 119.552C176.719 119.711 176.655 119.864 176.543 119.977C176.43 120.09 176.278 120.153 176.119 120.153Z" fill="#263238"/>
<g opacity="0.2">
<path d="M190.83 120.152H178.728C178.569 120.152 178.416 120.089 178.304 119.976C178.191 119.863 178.128 119.71 178.128 119.551C178.128 119.391 178.191 119.239 178.304 119.126C178.416 119.013 178.569 118.95 178.728 118.95H190.83C190.989 118.95 191.142 119.013 191.254 119.126C191.367 119.239 191.43 119.391 191.43 119.551C191.43 119.71 191.367 119.863 191.254 119.976C191.142 120.089 190.989 120.152 190.83 120.152Z" fill="#263238"/>
</g>
<path d="M216.767 120.153H194.627C194.468 120.153 194.316 120.09 194.203 119.977C194.091 119.864 194.027 119.711 194.027 119.552C194.027 119.392 194.091 119.24 194.203 119.127C194.316 119.014 194.468 118.951 194.627 118.951H216.767C216.926 118.951 217.079 119.014 217.192 119.127C217.304 119.24 217.367 119.392 217.367 119.552C217.367 119.711 217.304 119.864 217.192 119.977C217.079 120.09 216.926 120.153 216.767 120.153Z" fill="#2FB857"/>
<g opacity="0.2">
<path d="M178.944 124.079H163.41C163.25 124.079 163.098 124.016 162.985 123.903C162.873 123.79 162.81 123.637 162.81 123.478C162.81 123.318 162.873 123.166 162.985 123.053C163.098 122.94 163.25 122.877 163.41 122.877H178.944C179.103 122.877 179.255 122.94 179.368 123.053C179.48 123.166 179.544 123.318 179.544 123.478C179.544 123.637 179.48 123.79 179.368 123.903C179.255 124.016 179.103 124.079 178.944 124.079Z" fill="#263238"/>
</g>
<path opacity="0.4" d="M225 77.8909C225 78.0956 225.061 78.2958 225.174 78.466C225.288 78.6362 225.45 78.7687 225.638 78.8468C225.827 78.9249 226.035 78.945 226.236 78.9047C226.436 78.8643 226.62 78.7652 226.764 78.62C226.908 78.4747 227.006 78.2899 227.045 78.0889C227.084 77.8879 227.063 77.6798 226.984 77.4909C226.905 77.3021 226.771 77.141 226.601 77.0281C226.431 76.9152 226.23 76.8555 226.026 76.8567C225.891 76.8567 225.757 76.8835 225.632 76.9355C225.507 76.9876 225.394 77.0639 225.298 77.16C225.203 77.2561 225.128 77.3701 225.076 77.4955C225.025 77.621 224.999 77.7553 225 77.8909Z" fill="white"/>
<path opacity="0.4" d="M222.449 78.9198C223.015 78.9198 223.475 78.4595 223.475 77.8917C223.475 77.3238 223.015 76.8635 222.449 76.8635C221.882 76.8635 221.423 77.3238 221.423 77.8917C221.423 78.4595 221.882 78.9198 222.449 78.9198Z" fill="white"/>
<path opacity="0.4" d="M218.844 78.9198C219.411 78.9198 219.87 78.4595 219.87 77.8917C219.87 77.3238 219.411 76.8635 218.844 76.8635C218.278 76.8635 217.818 77.3238 217.818 77.8917C217.818 78.4595 218.278 78.9198 218.844 78.9198Z" fill="white"/>
<path d="M67.957 79.0159H50.725C50.028 79.0151 49.3376 79.152 48.6934 79.4187C48.0492 79.6855 47.4638 80.0769 46.9707 80.5705C46.4775 81.0641 46.0863 81.6503 45.8194 82.2955C45.5524 82.9408 45.415 83.6324 45.415 84.3309V99.362C45.4143 100.061 45.5509 100.752 45.8171 101.398C46.0833 102.043 46.4738 102.63 46.9664 103.124C47.459 103.618 48.044 104.01 48.6879 104.278C49.3318 104.545 50.022 104.683 50.719 104.683H62.941L66.541 109.427V104.683H67.951C69.3593 104.683 70.71 104.122 71.7058 103.125C72.7016 102.127 73.261 100.773 73.261 99.362V84.3309C73.261 82.9213 72.7022 81.5694 71.7075 80.5726C70.7128 79.5758 69.3637 79.0159 67.957 79.0159Z" fill="#2FB857"/>
<path opacity="0.7" d="M67.957 79.0159H50.725C50.028 79.0151 49.3376 79.152 48.6934 79.4187C48.0492 79.6855 47.4638 80.0769 46.9707 80.5705C46.4775 81.0641 46.0863 81.6503 45.8194 82.2955C45.5524 82.9408 45.415 83.6324 45.415 84.3309V99.362C45.4143 100.061 45.5509 100.752 45.8171 101.398C46.0833 102.043 46.4738 102.63 46.9664 103.124C47.459 103.618 48.044 104.01 48.6879 104.278C49.3318 104.545 50.022 104.683 50.719 104.683H62.941L66.541 109.427V104.683H67.951C69.3593 104.683 70.71 104.122 71.7058 103.125C72.7016 102.127 73.261 100.773 73.261 99.362V84.3309C73.261 82.9213 72.7022 81.5694 71.7075 80.5726C70.7128 79.5758 69.3637 79.0159 67.957 79.0159Z" fill="white"/>
<path d="M58.4403 95.5991C58.3264 95.5985 58.2139 95.5736 58.1104 95.5259C58.0069 95.4782 57.9148 95.4088 57.8403 95.3225L54.4863 91.3903C54.4193 91.3114 54.3685 91.22 54.3368 91.1213C54.3051 91.0227 54.293 90.9188 54.3014 90.8155C54.3098 90.7122 54.3383 90.6116 54.3855 90.5194C54.4327 90.4272 54.4975 90.3451 54.5763 90.278C54.6551 90.2109 54.7463 90.16 54.8447 90.1282C54.9431 90.0964 55.0469 90.0844 55.1499 90.0928C55.253 90.1011 55.3534 90.1298 55.4455 90.177C55.5375 90.2243 55.6193 90.2893 55.6863 90.3682L58.4403 93.627L62.9943 88.2518C63.1311 88.1006 63.3212 88.0085 63.5245 87.9949C63.7278 87.9814 63.9283 88.0474 64.084 88.1792C64.2396 88.311 64.338 88.4981 64.3586 88.7012C64.3792 88.9043 64.3203 89.1075 64.1943 89.2679L59.0403 95.3345C58.9652 95.4193 58.8727 95.4868 58.7691 95.5325C58.6656 95.5781 58.5534 95.6008 58.4403 95.5991Z" fill="white"/>
<path d="M65.3873 97.8419C68.7287 94.4936 68.7286 89.065 65.3873 85.7167C62.046 82.3685 56.6286 82.3685 53.2873 85.7167C49.946 89.065 49.946 94.4936 53.2873 97.8419C56.6286 101.19 62.046 101.19 65.3873 97.8419Z" fill="#2FB857"/>
<path d="M122.831 185.473L135.713 184.842L134.459 196.067C134.459 196.067 125.519 197.774 121.529 191.401L122.831 185.473Z" fill="#EBB376"/>
<path d="M144.018 188.756L141.084 196.897L134.46 196.067L135.714 184.842L144.018 188.756Z" fill="#EBB376"/>
<path d="M110.466 203.691C115.371 201.124 119.842 197.798 123.714 193.836L122.832 185.473C110.658 187.277 103.632 189.856 103.632 189.856C103.632 189.856 108.144 173.652 104.016 167.748L92.6818 169.804C92.6818 169.804 80.6398 194.888 88.7398 203.691H110.466Z" fill="#2FB857"/>
<path opacity="0.7" d="M110.448 203.691C115.356 201.125 119.831 197.801 123.708 193.842L122.832 185.467C111.048 187.199 104.082 189.676 103.632 189.838C103.782 189.237 108.048 173.538 104.004 167.742L92.6702 169.798C90.34 174.835 88.4898 180.081 87.1442 185.467C85.5242 192.315 85.0502 199.692 88.7342 203.691H110.448Z" fill="white"/>
<path opacity="0.2" d="M101.129 203.691C105.131 178.282 101.585 171.824 101.585 171.824L87.1852 185.455C85.5652 192.303 85.0912 199.68 88.7752 203.678L101.129 203.691Z" fill="black"/>
<path d="M98.6279 203.691C101.328 190.848 104.358 170.742 104.028 167.748C103.548 163.395 79.9199 144.744 59.4119 158.321C55.2119 161.092 53.0699 190.992 52.3379 203.691H98.6279Z" fill="#2FB857"/>
<path opacity="0.7" d="M98.6279 203.691C101.328 190.849 104.358 170.737 104.028 167.743C103.548 163.396 79.9139 144.745 59.4059 158.327C57.8879 159.343 56.6399 163.931 55.6079 169.991C54.2399 178.24 53.2919 189.195 52.7279 197.456C52.5719 199.795 52.4399 201.911 52.3379 203.691H98.6279Z" fill="white"/>
<path d="M88.5061 103.144C81.3961 100.264 64.6321 110.6 63.1621 129.028C61.6921 147.456 71.0161 142.351 71.0161 142.351C71.0161 142.351 72.6781 149.38 79.4701 147.209C79.4701 147.209 85.0801 153.577 90.3001 150.985C90.3001 150.985 96.7981 157.767 100.284 154.19C100.284 154.19 104.076 158.525 107.538 155.242C111 151.959 120.894 118.446 105.372 110.696C89.8501 102.946 88.5061 103.144 88.5061 103.144Z" fill="#263238"/>
<path d="M88.5188 178.571L87.8348 178.511C88.6268 169.636 86.6768 165.71 86.6348 165.674L87.2348 165.355C87.3488 165.494 89.3288 169.444 88.5188 178.571Z" fill="#263238"/>
<path d="M91.7351 178.649C87.0251 167.532 92.3351 164.94 92.5511 164.82L92.8331 165.421C92.7851 165.421 87.9371 167.88 92.3651 178.342L91.7351 178.649Z" fill="#263238"/>
<path d="M87.1316 167.472C87.1316 167.472 78.0416 160.257 63.9296 156.192L59.3996 158.321C59.3996 158.321 51.8036 148.899 64.4636 145.815C77.1236 142.73 94.3436 151.226 98.6636 158.501C102.984 165.776 91.1516 168.121 91.1516 168.121C91.1516 168.121 90.0656 166.642 87.1316 167.472Z" fill="#2FB857"/>
<path opacity="0.6" d="M87.1316 167.472C87.1316 167.472 78.0416 160.257 63.9296 156.192L59.3996 158.321C59.3996 158.321 51.8036 148.899 64.4636 145.815C77.1236 142.73 94.3436 151.226 98.6636 158.501C102.984 165.776 91.1516 168.121 91.1516 168.121C91.1516 168.121 90.0656 166.642 87.1316 167.472Z" fill="white"/>
<path d="M92.616 178.517C92.616 178.636 92.5808 178.752 92.5149 178.851C92.449 178.95 92.3553 179.027 92.2456 179.073C92.136 179.118 92.0154 179.13 91.899 179.107C91.7826 179.084 91.6757 179.026 91.5918 178.942C91.5078 178.858 91.4507 178.751 91.4275 178.634C91.4044 178.518 91.4163 178.397 91.4617 178.287C91.5071 178.177 91.584 178.083 91.6827 178.017C91.7813 177.951 91.8973 177.916 92.016 177.916C92.1751 177.916 92.3278 177.979 92.4403 178.092C92.5528 178.205 92.616 178.358 92.616 178.517Z" fill="white"/>
<path d="M88.7215 178.517C88.7215 178.636 88.6863 178.752 88.6204 178.851C88.5544 178.95 88.4607 179.027 88.3511 179.073C88.2415 179.118 88.1208 179.13 88.0044 179.107C87.888 179.084 87.7811 179.026 87.6972 178.942C87.6133 178.858 87.5562 178.751 87.533 178.634C87.5099 178.518 87.5217 178.397 87.5672 178.287C87.6126 178.177 87.6895 178.083 87.7881 178.017C87.8868 177.951 88.0028 177.916 88.1215 177.916C88.2806 177.916 88.4332 177.979 88.5457 178.092C88.6583 178.205 88.7215 178.358 88.7215 178.517Z" fill="white"/>
<path d="M82.3011 133.477C81.7491 139.929 79.7751 151.412 74.5371 153.92C74.5371 153.92 80.3931 155.122 89.5371 166.732C94.7391 163.077 92.7711 160.581 92.7711 160.581C86.6871 156.583 88.2651 151.653 90.7251 147.354L82.3011 133.477Z" fill="#EBB376"/>
<path opacity="0.2" d="M85.7285 139.135L90.7145 147.372C90.1191 148.366 89.615 149.412 89.2085 150.498C86.8085 149.211 84.1805 145.135 84.6785 142.345C84.8337 141.221 85.1894 140.133 85.7285 139.135Z" fill="black"/>
<path d="M81.5995 119.835C79.9255 129.972 79.0015 134.217 82.7515 140.74C88.3855 150.559 100.872 151.022 105.462 141.738C109.59 133.381 111.636 118.206 103.02 111.508C94.5175 104.906 83.2615 109.692 81.5995 119.835Z" fill="#EBB376"/>
<path d="M102.319 105.862C108.877 109.506 115.123 120.893 105.793 118.049C104.383 120.785 99.3612 118.278 96.4392 114.995C95.9472 117.274 90.5712 119.558 86.6112 116.029C88.5252 118.795 85.2672 125.775 81.8772 124.573C78.4872 123.37 70.8792 121.789 77.6172 111.027C84.3552 100.264 95.3172 101.96 102.319 105.862Z" fill="#263238"/>
<path d="M99.9299 129.4C99.9299 129.4 100.53 133.422 101.67 135.605C100.392 136.345 98.6699 135.359 98.6699 135.359L99.9299 129.4Z" fill="#D58745"/>
<path d="M93.3895 137.162C93.8152 137.37 94.2591 137.539 94.7155 137.667C94.7463 137.676 94.7786 137.678 94.8103 137.674C94.8421 137.669 94.8725 137.658 94.8997 137.641C94.9269 137.624 94.9501 137.602 94.968 137.575C94.9859 137.548 94.998 137.518 95.0035 137.487C95.0199 137.421 95.0095 137.351 94.9747 137.292C94.9399 137.233 94.8833 137.191 94.8175 137.174C93.7851 136.884 92.8308 136.366 92.025 135.657C91.2192 134.948 90.5824 134.068 90.1615 133.08C90.1526 133.048 90.1373 133.018 90.1167 132.992C90.096 132.966 90.0703 132.945 90.0412 132.929C90.0121 132.913 89.9801 132.903 89.9471 132.9C89.9142 132.897 89.881 132.901 89.8495 132.911C89.7887 132.937 89.7403 132.985 89.7145 133.045C89.6887 133.106 89.6876 133.174 89.7115 133.236C90.4139 134.953 91.7233 136.351 93.3895 137.162Z" fill="#263238"/>
<path d="M76.4942 127.122C77.0598 129.229 78.4364 131.026 80.3221 132.118C82.7641 133.459 84.5222 131.162 84.3422 128.306C84.1562 125.727 82.6562 121.927 79.9802 121.777C77.3042 121.626 75.7682 124.458 76.4942 127.122Z" fill="#EBB376"/>
<path d="M92.7009 120.112C92.7611 120.14 92.8266 120.154 92.8929 120.154C92.9592 120.154 93.0247 120.14 93.0849 120.112C93.6174 119.815 94.2145 119.655 94.8234 119.645C95.4324 119.634 96.0345 119.774 96.5769 120.051C96.6308 120.086 96.6913 120.109 96.7545 120.119C96.8178 120.128 96.8823 120.124 96.944 120.107C97.0057 120.09 97.0631 120.061 97.1125 120.02C97.162 119.979 97.2023 119.928 97.2309 119.871C97.2902 119.75 97.3029 119.611 97.2663 119.481C97.2298 119.352 97.1466 119.24 97.0329 119.168C96.356 118.796 95.5967 118.601 94.8249 118.601C94.0531 118.601 93.2938 118.796 92.6169 119.168C92.5034 119.235 92.4202 119.344 92.3844 119.472C92.3487 119.599 92.3632 119.736 92.4249 119.853C92.4833 119.969 92.5811 120.061 92.7009 120.112Z" fill="#263238"/>
<path d="M108.823 124.067C108.877 124.098 108.937 124.118 108.999 124.124C109.061 124.13 109.124 124.123 109.183 124.103C109.245 124.083 109.303 124.049 109.352 124.006C109.402 123.962 109.442 123.909 109.47 123.85C109.499 123.79 109.515 123.726 109.518 123.66C109.522 123.594 109.512 123.528 109.489 123.466C109.27 122.685 108.874 121.965 108.332 121.362C107.789 120.759 107.116 120.29 106.363 119.991C106.301 119.969 106.235 119.961 106.17 119.966C106.105 119.972 106.042 119.992 105.985 120.025C105.928 120.057 105.878 120.102 105.84 120.155C105.802 120.208 105.776 120.269 105.763 120.334C105.732 120.464 105.75 120.602 105.814 120.72C105.879 120.837 105.984 120.927 106.111 120.971C106.704 121.217 107.233 121.595 107.658 122.078C108.082 122.56 108.39 123.134 108.559 123.755C108.58 123.822 108.614 123.884 108.66 123.938C108.705 123.991 108.76 124.035 108.823 124.067Z" fill="#263238"/>
<path d="M95.929 126.743C95.635 127.549 94.963 128.036 94.429 127.837C93.895 127.639 93.703 126.833 93.997 126.034C94.291 125.234 94.963 124.741 95.491 124.939C96.019 125.138 96.217 125.944 95.929 126.743Z" fill="#263238"/>
<path d="M95.2559 124.897L97.2479 124.855C97.2479 124.855 95.8439 125.997 95.2559 124.897Z" fill="#263238"/>
<path d="M106.003 129.948C105.709 130.748 105.037 131.235 104.509 131.042C103.981 130.85 103.777 130.032 104.071 129.238C104.365 128.445 105.037 127.952 105.571 128.144C106.105 128.337 106.297 129.142 106.003 129.948Z" fill="#263238"/>
<path d="M105.336 128.096L107.322 128.053C107.322 128.053 105.918 129.202 105.336 128.096Z" fill="#263238"/>
<path d="M94.9807 132.425C94.3608 132.427 93.7475 132.298 93.1807 132.046C92.581 131.77 92.0482 131.367 91.6193 130.865C91.1904 130.362 90.8756 129.773 90.6967 129.136C90.3099 127.764 90.4157 126.3 90.9957 124.998C91.5757 123.696 92.5931 122.639 93.8707 122.011C94.4625 121.715 95.1126 121.554 95.7741 121.539C96.4357 121.525 97.0922 121.657 97.6964 121.928C98.3006 122.198 98.8375 122.599 99.2685 123.102C99.6994 123.605 100.014 124.198 100.189 124.837C100.588 126.208 100.479 127.677 99.8827 128.974C99.3198 130.292 98.2985 131.36 97.0087 131.98C96.3732 132.275 95.681 132.427 94.9807 132.425ZM95.9227 122.234C95.3253 122.25 94.7383 122.393 94.2007 122.655C93.0739 123.213 92.1769 124.148 91.6643 125.299C91.1517 126.449 91.0556 127.742 91.3927 128.956C91.5371 129.502 91.8017 130.009 92.1671 130.44C92.5325 130.87 92.9894 131.213 93.5043 131.444C94.0192 131.675 94.5791 131.787 95.1429 131.772C95.7067 131.758 96.2602 131.617 96.7627 131.361C97.8984 130.816 98.7996 129.879 99.3007 128.721C99.8282 127.573 99.9241 126.273 99.5707 125.06C99.4202 124.517 99.1532 124.013 98.7884 123.584C98.4236 123.155 97.9698 122.812 97.4587 122.577C96.9782 122.35 96.4536 122.233 95.9227 122.234Z" fill="#263238"/>
<path d="M104.963 135.492C104.343 135.497 103.729 135.368 103.163 135.113C102.563 134.836 102.03 134.433 101.6 133.931C101.171 133.429 100.854 132.839 100.673 132.203C100.289 130.83 100.397 129.366 100.978 128.064C101.559 126.763 102.576 125.706 103.853 125.078C104.444 124.78 105.094 124.618 105.756 124.603C106.417 124.588 107.074 124.721 107.678 124.991C108.282 125.262 108.819 125.663 109.249 126.167C109.679 126.671 109.992 127.264 110.165 127.904C110.569 129.274 110.463 130.744 109.865 132.04C109.46 133.023 108.784 133.87 107.916 134.481C107.047 135.092 106.023 135.443 104.963 135.492ZM105.917 125.27C105.311 125.275 104.714 125.41 104.165 125.667C103.03 126.216 102.13 127.155 101.627 128.313C101.096 129.458 101 130.757 101.357 131.968C101.508 132.512 101.775 133.016 102.139 133.446C102.504 133.876 102.958 134.221 103.469 134.457C105.569 135.401 108.173 134.175 109.265 131.734C109.79 130.585 109.886 129.286 109.535 128.072C109.384 127.53 109.116 127.027 108.752 126.598C108.387 126.169 107.934 125.825 107.423 125.589C106.946 125.39 106.434 125.292 105.917 125.3V125.27Z" fill="#263238"/>
<path d="M100.681 129.22C100.667 129.177 100.645 129.138 100.615 129.105C100.585 129.071 100.548 129.045 100.507 129.028C100.243 128.982 99.9717 129.022 99.7326 129.142L99.4326 128.541C99.8402 128.332 100.311 128.283 100.753 128.403C100.891 128.452 101.017 128.531 101.121 128.635C101.224 128.739 101.304 128.865 101.353 129.004L100.681 129.22Z" fill="#263238"/>
<path d="M84.2716 122.786L84.0664 123.444L92.188 125.988L92.3932 125.33L84.2716 122.786Z" fill="#263238"/>
<path opacity="0.2" d="M82.3675 186.062C82.3675 186.062 66.5815 198.183 52.7275 197.485C53.2915 189.224 54.2395 178.246 55.6075 170.021C57.0235 168.457 57.9535 167.507 57.9535 167.507L66.3535 173.802L64.3075 176.376C64.3075 176.376 77.0215 175.726 81.4495 176.376L82.3675 186.062Z" fill="black"/>
<path d="M83.9995 176.346L96.6355 173.76L97.0855 185.052C97.0855 185.052 88.5115 188.094 83.6035 182.4L83.9995 176.346Z" fill="#EBB376"/>
<path d="M105.433 176.382L103.765 184.871L97.0867 185.058L96.6367 173.766L105.433 176.382Z" fill="#EBB376"/>
<path d="M84.0009 176.346L84.6189 185.058L81.4749 186.471L80.1309 176.346H84.0009Z" fill="#2FB857"/>
<path opacity="0.6" d="M84.0009 176.346L84.6189 185.058L81.4749 186.471L80.1309 176.346H84.0009Z" fill="white"/>
<path d="M63.9296 156.192C60.539 156.792 57.4686 158.572 55.2596 161.218C51.4496 165.704 38.0216 179.027 41.0036 189.904C43.9856 200.78 72.7016 192.688 81.4736 186.471L80.1296 176.346L60.2396 177.807L66.3716 173.76C70.5776 162.036 63.9296 156.192 63.9296 156.192Z" fill="#2FB857"/>
<path opacity="0.7" d="M63.9296 156.192C60.539 156.792 57.4686 158.572 55.2596 161.218C51.4496 165.704 38.0216 179.027 41.0036 189.904C43.9856 200.78 72.7016 192.688 81.4736 186.471L80.1296 176.346L60.2396 177.807L66.3716 173.76C70.5776 162.036 63.9296 156.192 63.9296 156.192Z" fill="white"/>
<path d="M121.535 185.666L125.153 185.058V194.774L122.285 195.243L121.535 185.666Z" fill="#2FB857"/>
<path opacity="0.6" d="M121.535 185.666L125.153 185.058V194.774L122.285 195.243L121.535 185.666Z" fill="white"/>
<path d="M114.222 194.678C114.212 194.145 114.238 193.613 114.3 193.084L114.408 192.285L113.634 192.742L113.172 193.018C113.02 193.087 112.864 193.145 112.704 193.193C112.431 193.279 112.138 193.279 111.864 193.193C111.6 193.095 111.368 192.926 111.192 192.706C110.989 192.462 110.829 192.185 110.718 191.888L110.04 189.994L109.56 192.002C109.512 192.2 109.482 192.405 109.446 192.603C109.41 192.802 109.326 192.976 109.272 193.162C109.157 193.462 108.965 193.726 108.714 193.926C108.434 194.07 108.109 194.098 107.808 194.004C107.43 193.905 107.07 193.747 106.74 193.535L105.696 192.88L106.116 193.944C106.298 194.396 106.442 194.863 106.548 195.339C106.601 195.576 106.633 195.818 106.644 196.06C106.671 196.308 106.616 196.557 106.488 196.77C106.699 196.6 106.843 196.362 106.896 196.097C106.965 195.838 107.001 195.571 107.004 195.303C107.016 195.093 107.016 194.882 107.004 194.672C107.179 194.771 107.359 194.859 107.544 194.936C107.817 195.048 108.109 195.102 108.404 195.095C108.698 195.087 108.988 195.019 109.254 194.894C109.762 194.609 110.157 194.159 110.376 193.619V193.541C110.701 193.912 111.136 194.167 111.617 194.27C112.098 194.373 112.599 194.318 113.046 194.112C113.223 194.032 113.393 193.94 113.556 193.836C113.556 193.836 113.556 193.878 113.556 193.902C113.599 194.185 113.657 194.466 113.73 194.744C113.803 195.024 113.904 195.295 114.03 195.555C114.15 195.817 114.329 196.048 114.552 196.229C114.418 195.993 114.33 195.734 114.294 195.465C114.253 195.205 114.229 194.941 114.222 194.678Z" fill="#2FB857"/>
<path d="M135.684 181.114C135.216 181.159 134.745 181.108 134.298 180.963C133.837 180.826 133.399 180.624 132.996 180.362C132.613 180.078 132.286 179.725 132.03 179.322C131.759 178.922 131.543 178.487 131.388 178.029L130.992 176.827L130.32 177.891C130.032 178.338 129.685 178.742 129.288 179.094C128.965 179.414 128.54 179.609 128.088 179.647H127.944L127.764 179.611C127.638 179.611 127.518 179.551 127.392 179.52C127.141 179.438 126.898 179.333 126.666 179.208C126.196 178.944 125.762 178.621 125.376 178.246L124.332 177.242L124.548 178.619C124.668 179.354 124.715 180.099 124.686 180.843C124.674 181.193 124.603 181.539 124.476 181.865C124.419 182.008 124.316 182.127 124.183 182.204C124.05 182.28 123.895 182.309 123.744 182.286H123.474L123.558 182.509C123.734 182.962 123.914 183.413 124.098 183.861C124.044 183.459 123.978 183.056 123.906 182.659H124.02C124.139 182.65 124.258 182.63 124.374 182.599C124.484 182.542 124.59 182.478 124.692 182.406C124.77 182.322 124.854 182.232 124.926 182.142C125.156 181.776 125.309 181.367 125.376 180.939C125.451 180.543 125.495 180.141 125.508 179.737C125.699 179.896 125.9 180.045 126.108 180.182C126.389 180.356 126.687 180.502 126.996 180.621C127.326 180.758 127.677 180.837 128.034 180.855C128.776 180.845 129.489 180.562 130.038 180.062C130.273 179.864 130.492 179.646 130.692 179.412C130.809 179.619 130.937 179.82 131.076 180.014C131.435 180.51 131.882 180.936 132.396 181.27C132.908 181.582 133.47 181.802 134.058 181.919C134.435 181.993 134.82 182.021 135.204 182.004C135.156 182.124 135.102 182.244 135.06 182.37C134.954 182.717 134.872 183.071 134.814 183.429C134.75 183.788 134.734 184.154 134.766 184.517C134.784 184.879 134.893 185.231 135.084 185.539C134.98 185.211 134.954 184.863 135.006 184.523C135.051 184.185 135.129 183.853 135.24 183.531C135.47 182.902 135.761 182.298 136.11 181.727L136.488 181.084L135.684 181.114Z" fill="#2FB857"/>
<path d="M255.719 216.647L45.2988 216.647C44.5923 216.647 43.9147 216.366 43.4151 215.866C42.9155 215.365 42.6348 214.686 42.6348 213.978V207.484L258.383 207.484V213.978C258.383 214.686 258.102 215.365 257.603 215.866C257.103 216.366 256.425 216.647 255.719 216.647Z" fill="#2FB857"/>
<path opacity="0.2" d="M42.6288 212.06L258.383 212.06V207.478L42.6288 207.478V212.06Z" fill="black"/>
<path d="M38.1122 208.675H262.908C263.591 208.675 264.247 208.403 264.73 207.92C265.214 207.436 265.487 206.78 265.488 206.096C265.488 205.41 265.216 204.752 264.733 204.267C264.249 203.783 263.592 203.51 262.908 203.51H38.1122C37.428 203.51 36.7717 203.783 36.2879 204.267C35.804 204.752 35.5322 205.41 35.5322 206.096C35.5338 206.78 35.8063 207.436 36.29 207.92C36.7737 208.403 37.429 208.675 38.1122 208.675Z" fill="#2FB857"/>
<path d="M247.675 171.957L241.111 201.79C240.991 202.268 240.718 202.693 240.333 203C239.948 203.306 239.473 203.477 238.981 203.486H203.125C202.902 203.48 202.683 203.423 202.486 203.318C202.289 203.213 202.118 203.064 201.988 202.883C201.858 202.701 201.772 202.491 201.736 202.271C201.7 202.05 201.715 201.824 201.781 201.61L208.333 172.005C208.468 171.554 208.752 171.162 209.14 170.897C209.528 170.631 209.995 170.506 210.463 170.544H246.319C247.279 170.568 247.885 171.007 247.675 171.957Z" fill="#263238"/>
<path opacity="0.4" d="M247.674 171.956L241.11 201.79C240.99 202.268 240.717 202.693 240.332 202.999C239.947 203.306 239.472 203.477 238.98 203.486H204.342C204.118 203.481 203.899 203.424 203.701 203.32C203.503 203.215 203.332 203.066 203.201 202.885C203.07 202.703 202.983 202.493 202.947 202.272C202.911 202.051 202.926 201.824 202.992 201.61L209.556 172.004C209.688 171.552 209.972 171.158 210.36 170.892C210.749 170.626 211.217 170.502 211.686 170.543H246.318C247.278 170.567 247.884 171.006 247.674 171.956Z" fill="white"/>
<path d="M241.956 202.566L248.484 172.889C248.7 171.915 248.094 171.476 247.128 171.476H212.496C212.028 171.437 211.56 171.561 211.172 171.827C210.784 172.093 210.5 172.485 210.366 172.937L203.736 202.957L241.956 202.566Z" fill="#2FB857"/>
<path opacity="0.4" d="M248.484 172.883L245.04 188.563L241.95 202.566L221.49 202.777L203.742 202.951L210.342 172.937C210.474 172.485 210.757 172.093 211.144 171.827C211.531 171.56 211.998 171.436 212.466 171.476H247.14C248.1 171.476 248.7 171.921 248.484 172.883Z" fill="white"/>
<path opacity="0.2" d="M245.04 188.563L241.95 202.566L221.49 202.776H204.498L207.276 189.97C207.365 189.573 207.586 189.218 207.902 188.963C208.217 188.707 208.61 188.566 209.016 188.563H245.04Z" fill="black"/>
<path d="M245.628 190.511C245.496 190.059 245.211 189.667 244.823 189.402C244.434 189.137 243.966 189.015 243.498 189.056H208.866C207.906 189.056 207.3 189.489 207.51 190.463L210.138 202.404H204.288C204.142 202.404 204.002 202.462 203.898 202.566C203.794 202.669 203.736 202.81 203.736 202.957C203.736 203.103 203.794 203.244 203.898 203.348C204.002 203.452 204.142 203.51 204.288 203.51H246.948C247.134 203.506 247.318 203.462 247.484 203.378C247.651 203.295 247.797 203.176 247.912 203.029C248.027 202.882 248.108 202.712 248.148 202.53C248.189 202.348 248.189 202.159 248.148 201.977L245.628 190.511Z" fill="#2FB857"/>
<path opacity="0.4" d="M245.628 190.511C245.496 190.059 245.211 189.667 244.823 189.402C244.434 189.137 243.966 189.015 243.498 189.056H208.866C207.906 189.056 207.3 189.489 207.51 190.463L210.138 202.404H204.288C204.142 202.404 204.002 202.462 203.898 202.566C203.794 202.669 203.736 202.81 203.736 202.957C203.736 203.103 203.794 203.244 203.898 203.348C204.002 203.452 204.142 203.51 204.288 203.51H246.948C247.134 203.506 247.318 203.462 247.484 203.378C247.651 203.295 247.797 203.176 247.912 203.029C248.027 202.882 248.108 202.712 248.148 202.53C248.189 202.348 248.189 202.159 248.148 201.977L245.628 190.511Z" fill="white"/>
<path d="M203.25 197.756H201.24L200.988 198.844H202.944L203.25 197.756Z" fill="black"/>
<path d="M190.549 203.648H184.759C184.714 203.649 184.669 203.641 184.627 203.624C184.585 203.607 184.547 203.582 184.515 203.55C184.483 203.518 184.458 203.48 184.441 203.438C184.425 203.396 184.416 203.351 184.417 203.305C184.417 203.215 184.453 203.127 184.517 203.063C184.581 202.999 184.668 202.963 184.759 202.963H190.549C191.499 202.965 192.437 202.752 193.294 202.341C194.151 201.93 194.905 201.331 195.499 200.588C196.158 199.763 196.993 199.099 197.944 198.643C198.894 198.187 199.935 197.951 200.989 197.954H202.009C202.099 197.956 202.185 197.993 202.249 198.056C202.313 198.12 202.35 198.207 202.351 198.297C202.351 198.388 202.315 198.475 202.251 198.539C202.187 198.604 202.1 198.64 202.009 198.64H201.001C200.051 198.638 199.113 198.851 198.256 199.262C197.399 199.673 196.645 200.272 196.051 201.015C195.391 201.84 194.553 202.506 193.601 202.962C192.648 203.418 191.605 203.652 190.549 203.648Z" fill="black"/>
<path d="M94.0674 199.404V201.911C94.0674 203.041 95.4294 203.51 96.5574 203.51H184.505C185.621 203.51 186.947 203.041 186.947 201.911V199.404H94.0674Z" fill="#263238"/>
<path opacity="0.4" d="M94.0674 199.404V201.911C94.0674 203.041 95.4294 203.51 96.5574 203.51H184.505C185.621 203.51 186.947 203.041 186.947 201.911V199.404H94.0674Z" fill="white"/>
<path opacity="0.2" d="M124.031 199.404V201.911C124.031 203.041 125.369 203.51 126.497 203.51H184.505C185.621 203.51 186.947 203.041 186.947 201.911V199.404H124.031Z" fill="black"/>
<path d="M201.665 151.712L191.195 199.301C191.007 200.066 190.572 200.747 189.958 201.238C189.344 201.73 188.585 202.004 187.799 202.018H130.601C129.083 202.018 128.099 200.594 128.453 199.012L138.911 151.784C139.265 150.233 140.777 149.458 142.313 149.458H199.505C201.041 149.464 202.007 150.161 201.665 151.712Z" fill="#263238"/>
<path opacity="0.4" d="M201.665 151.712L191.195 199.301C191.007 200.066 190.573 200.747 189.958 201.238C189.344 201.73 188.585 202.004 187.799 202.018H132.545C131.009 202.018 130.043 200.594 130.385 199.012L140.855 151.784C141.197 150.233 142.721 149.458 144.257 149.458H199.505C201.041 149.464 202.007 150.161 201.665 151.712Z" fill="white"/>
<path opacity="0.2" d="M173.465 175.901C173.465 179.978 169.109 183.29 165.911 183.29C162.713 183.29 160.823 179.978 161.711 175.901C162.599 171.825 165.797 168.656 168.911 168.53C167.999 172.606 169.949 175.901 173.111 175.901C173.229 175.912 173.348 175.912 173.465 175.901Z" fill="black"/>
</svg>
