<svg width="263" height="584" viewBox="0 0 263 584" fill="none" xmlns="http://www.w3.org/2000/svg">
<path d="M263 374.5C263 581.331 89.2865 749 -125 749C-339.286 749 -513 581.331 -513 374.5C-513 167.669 -339.286 0 -125 0C89.2865 0 263 167.669 263 374.5Z" fill="url(#paint0_radial_11_21974)" fill-opacity="0.5"/>
<defs>
<radialGradient id="paint0_radial_11_21974" cx="0" cy="0" r="1" gradientUnits="userSpaceOnUse" gradientTransform="translate(161.501 39) rotate(90) scale(374.5 388)">
<stop stop-color="#21CD66" stop-opacity="0.26"/>
<stop offset="0.604167" stop-color="#34964A" stop-opacity="0.19"/>
<stop offset="1" stop-color="#24CD21" stop-opacity="0"/>
</radialGradient>
</defs>
</svg>
