<svg width="39" height="30" viewBox="0 0 39 30" fill="none" xmlns="http://www.w3.org/2000/svg">
<path d="M30.0445 8.71799C30.5443 8.71618 31.0232 8.54617 31.3781 8.2446L32.7307 7.08563C32.9302 6.9393 33.0922 6.75922 33.2065 6.5567C33.3209 6.35418 33.3851 6.1336 33.3953 5.90879C33.4054 5.68399 33.3612 5.45981 33.2654 5.25034C33.1696 5.04087 33.0243 4.85062 32.8387 4.69154C32.653 4.53246 32.431 4.40798 32.1865 4.32592C31.942 4.24385 31.6804 4.20597 31.418 4.21465C31.1556 4.22334 30.8982 4.2784 30.6618 4.37637C30.4255 4.47435 30.2153 4.61314 30.0445 4.78401L28.7871 5.94298C28.4323 6.24883 28.2331 6.66255 28.2331 7.09379C28.2331 7.52504 28.4323 7.93876 28.7871 8.2446C29.123 8.53086 29.5712 8.69963 30.0445 8.71799ZM19.2614 4.89828C19.7667 4.89828 20.2512 4.7263 20.6085 4.42017C20.9658 4.11405 21.1665 3.69885 21.1665 3.26593V1.63357C21.1665 1.20065 20.9658 0.785451 20.6085 0.479326C20.2512 0.1732 19.7667 0.0012207 19.2614 0.0012207C18.7561 0.0012207 18.2715 0.1732 17.9142 0.479326C17.557 0.785451 17.3562 1.20065 17.3562 1.63357V3.26593C17.3562 3.69885 17.557 4.11405 17.9142 4.42017C18.2715 4.7263 18.7561 4.89828 19.2614 4.89828ZM4.02025 14.6924H2.1151C1.60983 14.6924 1.12525 14.8644 0.767964 15.1705C0.410681 15.4766 0.209961 15.8918 0.209961 16.3247C0.209961 16.7577 0.410681 17.1729 0.767964 17.479C1.12525 17.7851 1.60983 17.9571 2.1151 17.9571H4.02025C4.52552 17.9571 5.0101 17.7851 5.36738 17.479C5.72467 17.1729 5.92539 16.7577 5.92539 16.3247C5.92539 15.8918 5.72467 15.4766 5.36738 15.1705C5.0101 14.8644 4.52552 14.6924 4.02025 14.6924ZM7.14468 8.2446C7.49953 8.54617 7.97849 8.71618 8.47828 8.71799C8.72901 8.71923 8.97756 8.67805 9.20968 8.59682C9.44179 8.51558 9.65291 8.39589 9.83093 8.2446C10.1858 7.93876 10.3849 7.52504 10.3849 7.09379C10.3849 6.66255 10.1858 6.24883 9.83093 5.94298L8.47828 4.78401C8.11382 4.51659 7.64501 4.37685 7.16553 4.39272C6.68606 4.40859 6.23122 4.5789 5.89193 4.86961C5.55263 5.16032 5.35386 5.55003 5.33534 5.96085C5.31682 6.37168 5.47992 6.77336 5.79203 7.08563L7.14468 8.2446ZM36.4077 14.6924H34.5025C33.9973 14.6924 33.5127 14.8644 33.1554 15.1705C32.7981 15.4766 32.5974 15.8918 32.5974 16.3247C32.5974 16.7577 32.7981 17.1729 33.1554 17.479C33.5127 17.7851 33.9973 17.9571 34.5025 17.9571H36.4077C36.9129 17.9571 37.3975 17.7851 37.7548 17.479C38.1121 17.1729 38.3128 16.7577 38.3128 16.3247C38.3128 15.8918 38.1121 15.4766 37.7548 15.1705C37.3975 14.8644 36.9129 14.6924 36.4077 14.6924ZM17.3562 26.1189H11.6408C11.1355 26.1189 10.651 26.2908 10.2937 26.597C9.93639 26.9031 9.73567 27.3183 9.73567 27.7512C9.73567 28.1841 9.93639 28.5993 10.2937 28.9055C10.651 29.2116 11.1355 29.3836 11.6408 29.3836H17.3562C17.8615 29.3836 18.3461 29.2116 18.7034 28.9055C19.0607 28.5993 19.2614 28.1841 19.2614 27.7512C19.2614 27.3183 19.0607 26.9031 18.7034 26.597C18.3461 26.2908 17.8615 26.1189 17.3562 26.1189ZM30.6922 19.5895H29.0157C29.4969 18.5505 29.7426 17.4425 29.7397 16.3247C29.7397 13.9437 28.6357 11.6601 26.6707 9.97639C24.7056 8.2927 22.0404 7.34681 19.2614 7.34681C16.4824 7.34681 13.8172 8.2927 11.8521 9.97639C9.88706 11.6601 8.7831 13.9437 8.7831 16.3247C8.7802 17.4425 9.0259 18.5505 9.50706 19.5895H7.83053C7.32526 19.5895 6.84068 19.7614 6.48339 20.0676C6.12611 20.3737 5.92539 20.7889 5.92539 21.2218C5.92539 21.6547 6.12611 22.0699 6.48339 22.3761C6.84068 22.6822 7.32526 22.8542 7.83053 22.8542H30.6922C31.1975 22.8542 31.6821 22.6822 32.0394 22.3761C32.3967 22.0699 32.5974 21.6547 32.5974 21.2218C32.5974 20.7889 32.3967 20.3737 32.0394 20.0676C31.6821 19.7614 31.1975 19.5895 30.6922 19.5895ZM24.691 19.5895H13.8317C13.0313 18.6387 12.5983 17.4971 12.5934 16.3247C12.5934 14.8095 13.2959 13.3563 14.5464 12.2849C15.7969 11.2134 17.4929 10.6115 19.2614 10.6115C21.0299 10.6115 22.7259 11.2134 23.9764 12.2849C25.2269 13.3563 25.9294 14.8095 25.9294 16.3247C25.9245 17.4971 25.4914 18.6387 24.691 19.5895ZM26.882 26.1189H24.9768C24.4715 26.1189 23.987 26.2908 23.6297 26.597C23.2724 26.9031 23.0717 27.3183 23.0717 27.7512C23.0717 28.1841 23.2724 28.5993 23.6297 28.9055C23.987 29.2116 24.4715 29.3836 24.9768 29.3836H26.882C27.3872 29.3836 27.8718 29.2116 28.2291 28.9055C28.5864 28.5993 28.7871 28.1841 28.7871 27.7512C28.7871 27.3183 28.5864 26.9031 28.2291 26.597C27.8718 26.2908 27.3872 26.1189 26.882 26.1189Z" fill="black"/>
</svg>
