<svg width="70" height="70" viewBox="0 0 70 70" fill="none" xmlns="http://www.w3.org/2000/svg">
<circle cx="35" cy="35" r="35" fill="#01352C" fill-opacity="0.3"/>
<g clip-path="url(#clip0_490_25851)">
<path d="M46.25 32.5C46.25 41.25 35 48.75 35 48.75C35 48.75 23.75 41.25 23.75 32.5C23.75 29.5163 24.9353 26.6548 27.045 24.545C29.1548 22.4353 32.0163 21.25 35 21.25C37.9837 21.25 40.8452 22.4353 42.955 24.545C45.0647 26.6548 46.25 29.5163 46.25 32.5Z" stroke="#01352C" stroke-width="3" stroke-linecap="round" stroke-linejoin="round"/>
<path d="M35 36.25C37.0711 36.25 38.75 34.5711 38.75 32.5C38.75 30.4289 37.0711 28.75 35 28.75C32.9289 28.75 31.25 30.4289 31.25 32.5C31.25 34.5711 32.9289 36.25 35 36.25Z" stroke="#01352C" stroke-width="3" stroke-linecap="round" stroke-linejoin="round"/>
</g>
<defs>
<clipPath id="clip0_490_25851">
<rect width="30" height="30" fill="white" transform="translate(20 20)"/>
</clipPath>
</defs>
</svg>
